religious_civil_war = {
	potential =	{
		has_country_flag = religious_turmoil_happening
		NOT = { has_country_flag = religious_civil_war }
		}
	can_start = {
		has_any_disaster = no
		any_owned_province = { 
			has_province_modifier = heretic_bastion 
			NOT = { controlled_by = owner }
			}
		}
	can_stop = {
		OR = { 
			has_any_disaster = yes
			has_country_modifier = edict_of_tolerance
			}
		}
	progress = {
		modifier = {
			factor = 15
			any_owned_province = {
				has_province_modifier = heretic_bastion
				NOT = { controlled_by = owner }
				}
			}		
		modifier = {
			factor = 10
			num_of_owned_provinces_with = { 
				value = 2
				has_province_modifier = heretic_bastion
				NOT = { controlled_by = owner}
				}
			}		
		modifier = {
			factor = 5
			num_of_owned_provinces_with = { 
				value = 3
				has_province_modifier = heretic_bastion
				NOT = { controlled_by = owner }
				}
			}		
		}
	can_end = {
		NOT = { any_owned_province = { has_province_modifier = heretic_bastion } }
		NOT = { any_owned_province = { has_province_modifier = church_bastion } }
		}
	modifier = {
		tolerance_own = 2
		tolerance_heretic = -2
		tolerance_heathen = -2
		stability_cost_modifier = 0.50
		global_unrest = 2
		}	
	
	on_start = dg_turmoil.041
	on_end = dg_turmoil.046
	
	on_monthly = {
		events = {
		}
		random_events = { 
			1000 = 0
			10 = centralisation.99
		}
	}
}

