vassal = {
	first = TIM
	second = KTD
	start_date = 1409.1.1
	end_date = 1447.1.1
}
vassal = {
	first = KTD
	second = MIH
	start_date = 1444.1.1
	end_date = 1507.1.1
}
vassal = {
	first = TIM
	second = ISF
	start_date = 1444.1.1
	end_date = 1447.1.1
}