#Ottoman vassal
#vassal = {
#	first = TUR
#	second = TUN
#	start_date = 1531.1.1
#	end_date = 1574.9.13
#}

#vassal = {
#	first = TUR
#	second = TRP
#	start_date = 1711.1.1
#	end_date = 1836.1.1
#}

march = {
	first = TUR
	second = TUN
	start_date = 1705.1.1
	end_date = 1836.1.1
}

# Swahili states
vassal = {
	first = KIL
	second = QLM
	start_date = 1356.1.1
	end_date = 1529.1.1
}
# validator fix - no vassal and alliance at same time
# alliance = {
#	first = KIL
#	second = QLM
#	start_date = 1356.1.1
#	end_date = 1730.1.1
# }

vassal = {
	first = KIL
	second = SOF
	start_date = 1356.1.1
	end_date = 1730.1.1
}
# validator fix - no vassal and alliance at same time
# alliance = {
#	first = KIL
#	second = SOF
#	start_date = 1356.1.1
#	end_date = 1730.1.1
# }

protectorate = {
	first = POR
	second = ZAN
	start_date = 1505.7.15 #Portuguese seize control
	end_date = 1729.11.1 #Portuguese Expelled
}

protectorate = {
	first = POR
	second = PTE
	start_date = 1505.7.15 #Portuguese seize control
	end_date = 1729.11.1 #Portuguese Expelled
}

protectorate = {
	first = POR
	second = MBA
	start_date = 1529.1.1
	end_date = 1698.12.13
} 

protectorate = {
	first = POR
	second = MLI
	start_date = 1498.1.1
	end_date = 1593.12.13
} 

protectorate = {
	first = POR
	second = KIL
	start_date = 1498.1.1
	end_date = 1593.12.13
} 

protectorate = {
	first = POR
	second = QLM
	start_date = 1498.1.1
	end_date = 1593.12.13
} 

protectorate = {
	first = POR
	second = COC
	start_date = 1498.1.1
	end_date = 1593.12.13
}

vassal = {
	first = POR
	second = ORM
	start_date = 1498.1.1
	end_date = 1593.12.13
}

#protectorate = {
#	first = POR
#	second = MLI
#	start_date = 1513.1.1
#	end_date = 1729.6.1 #Portuguese Expelled
#}
