namespace = dg_inti

#7 of 7 planned events finished

##################
# Gods and Kings #
##################

#01 - Patron God
#02 - Royal Mummy
#03 - Solar Eclipse 
#04 - Inti Raymi

#############################
# Sacred Places and Spirits #
#############################

#11 - Children of the Stars
#12 - Great Huaca
#13 - Revolt of the Huacas

##################
# Gods and Kings #
##################

country_event = { #01 - Patron God

id = dg_inti.001
title = dg_inti.001.t
desc = dg_inti.001.d
picture = inti_gods

is_triggered_only = yes #30 days after new ruler

option = {
	name = dg_inti.001.a #Viracocha, the Creator
	trigger = { 
		OR = { 
			ADM = 2
			advisor = theologian
			has_country_flag = viracocha_worship
			}
		}
	ai_chance = { 
		factor = 40 
		modifier = { 
			is_at_war = yes
			factor = 1.4
			}
		modifier = { 
			any_neighbor_country = { truce_with = ROOT }
			factor = 1.4
			}
		modifier = { 
			has_country_flag = viracocha_worship
			factor = 1.4
			}
		modifier = { 
			has_country_flag = viracocha_worship
			government = monarchy
			NOT = { legitimacy = 95 }
			factor = 1.4
			}
		}
	if = {
		limit = { has_country_flag = viracocha_worship }
		if = { 
			limit = { piety = 0.60 }
			add_legitimacy = 3
			}
		if = { 
			limit = { 
				piety = 0.20 
				NOT = { piety = 0.60 }
				}
			add_legitimacy = 2
			}
		if = { 
			limit = { 
				piety = -0.20 
				NOT = { piety = 0.20 }
				}
			add_legitimacy = 1
			}
		}
	if = {
		limit = { 
			OR = {
				has_country_flag = inti_worship
				has_country_flag = pachamama_worship
				has_country_flag = quilla_worship
				}
			}
		add_adm_power = -10
		clr_country_flag = inti_worship
		clr_country_flag = pachamama_worship
		clr_country_flag = quilla_worship
		clr_country_flag = clerical_advisor
		clr_country_flag = patriarch_zealous
		clr_country_flag = patriarch_theologian
		clr_country_flag = patriarch_obedient
		clr_country_flag = patriarch_controversial
		clr_country_flag = patriarch_corrupt
		clr_country_flag = patriarch_hostile
		clr_country_flag = patriarch_appointed
		remove_country_modifier = patriarch_zealous_fanatical
		remove_country_modifier = patriarch_zealous_pious
		remove_country_modifier = patriarch_zealous_observant
		remove_country_modifier = patriarch_theologian_fanatical
		remove_country_modifier = patriarch_theologian_pious
		remove_country_modifier = patriarch_theologian_observant
		remove_country_modifier = patriarch_obedient_fanatical
		remove_country_modifier = patriarch_obedient_pious
		remove_country_modifier = patriarch_obedient_observant
		remove_country_modifier = patriarch_controversial_fanatical
		remove_country_modifier = patriarch_controversial_pious
		remove_country_modifier = patriarch_controversial_observant
		remove_country_modifier = patriarch_corrupt_fanatical
		remove_country_modifier = patriarch_corrupt_pious
		remove_country_modifier = patriarch_corrupt_observant
		remove_country_modifier = patriarch_hostile_fanatical
		remove_country_modifier = patriarch_hostile_pious
		remove_country_modifier = patriarch_hostile_observant
		if = { 
			limit = { piety = 0.60 }
			add_legitimacy = -6
			}
		if = { 
			limit = { 
				piety = 0.20 
				NOT = { piety = 0.60 }
				}
			add_legitimacy = -4
			}
		if = { 
			limit = { 
				piety = -0.20 
				NOT = { piety = 0.20 }
				}
			add_legitimacy = -2
			}
		}
	add_ruler_modifier = { name = god_of_all_viracocha duration = -1 }
	set_country_flag = viracocha_worship
	every_known_country = { 
		limit = { 
			has_ruler_modifier = god_of_all_viracocha
			piety = 0.6
			}
		add_opinion = { who = ROOT modifier = same_doctrine_fanatical }
		}
	every_known_country = { 
		limit = { 
			has_ruler_modifier = god_of_all_viracocha
			piety = 0.2
			NOT = { piety = 0.6 }
			}
		add_opinion = { who = ROOT modifier = same_doctrine_pious }
		}
	every_known_country = { 
		limit = { 
			has_ruler_modifier = god_of_all_viracocha
			piety = -0.2
			NOT = { piety = 0.2 }
			}
		add_opinion = { who = ROOT modifier = same_doctrine_observant }
		}
	}
option = { 
	name = dg_inti.001.b #Pachamama, the Earth Mother
	trigger = { 
		OR = { 
			ADM = 2
			advisor = theologian
			has_country_flag = pachamama_worship
			}
		}
	ai_chance = { 
		factor = 25 
		modifier = { 
			any_owned_province = { 
				religion_group = ROOT
				NOT = { religion = ROOT }
				}
			factor = 1.4
			}
		modifier = { 
			has_country_flag = pachamama_worship
			factor = 1.4
			}
		modifier = { 
			has_country_flag = pachamama_worship
			government = monarchy
			NOT = { legitimacy = 95 }
			factor = 1.4
			}
		}
	if = {
		limit = { has_country_flag = pachamama_worship }
		if = { 
			limit = { piety = 0.60 }
			add_legitimacy = 3
			}
		if = { 
			limit = { 
				piety = 0.20 
				NOT = { piety = 0.60 }
				}
			add_legitimacy = 2
			}
		if = { 
			limit = { 
				piety = -0.20 
				NOT = { piety = 0.20 }
				}
			add_legitimacy = 1
			}
		}
	if = {
		limit = { 
			OR = {
				has_country_flag = inti_worship
				has_country_flag = viracocha_worship
				has_country_flag = quilla_worship
				}
			}
		add_adm_power = -10
		clr_country_flag = inti_worship
		clr_country_flag = viracocha_worship
		clr_country_flag = quilla_worship
		clr_country_flag = clerical_advisor
		clr_country_flag = patriarch_zealous
		clr_country_flag = patriarch_theologian
		clr_country_flag = patriarch_obedient
		clr_country_flag = patriarch_controversial
		clr_country_flag = patriarch_corrupt
		clr_country_flag = patriarch_hostile
		clr_country_flag = patriarch_appointed
		remove_country_modifier = patriarch_zealous_fanatical
		remove_country_modifier = patriarch_zealous_pious
		remove_country_modifier = patriarch_zealous_observant
		remove_country_modifier = patriarch_theologian_fanatical
		remove_country_modifier = patriarch_theologian_pious
		remove_country_modifier = patriarch_theologian_observant
		remove_country_modifier = patriarch_obedient_fanatical
		remove_country_modifier = patriarch_obedient_pious
		remove_country_modifier = patriarch_obedient_observant
		remove_country_modifier = patriarch_controversial_fanatical
		remove_country_modifier = patriarch_controversial_pious
		remove_country_modifier = patriarch_controversial_observant
		remove_country_modifier = patriarch_corrupt_fanatical
		remove_country_modifier = patriarch_corrupt_pious
		remove_country_modifier = patriarch_corrupt_observant
		remove_country_modifier = patriarch_hostile_fanatical
		remove_country_modifier = patriarch_hostile_pious
		remove_country_modifier = patriarch_hostile_observant
		if = { 
			limit = { piety = 0.60 }
			add_legitimacy = -6
			}
		if = { 
			limit = { 
				piety = 0.20 
				NOT = { piety = 0.60 }
				}
			add_legitimacy = -4
			}
		if = { 
			limit = { 
				piety = -0.20 
				NOT = { piety = 0.20 }
				}
			add_legitimacy = -2
			}
		}
	add_ruler_modifier = { name = god_of_earth_pachamama duration = -1 }
	set_country_flag = pachamama_worship
	every_known_country = { 
		limit = { 
			has_ruler_modifier = god_of_earth_pachamama
			piety = 0.6
			}
		add_opinion = { who = ROOT modifier = same_doctrine_fanatical }
		}
	every_known_country = { 
		limit = { 
			has_ruler_modifier = god_of_earth_pachamama
			piety = 0.2
			NOT = { piety = 0.6 }
			}
		add_opinion = { who = ROOT modifier = same_doctrine_pious }
		}
	every_known_country = { 
		limit = { 
			has_ruler_modifier = god_of_earth_pachamama
			piety = -0.2
			NOT = { piety = 0.2 }
			}
		add_opinion = { who = ROOT modifier = same_doctrine_observant }
		}
	}
option = {
	name = dg_inti.001.c #Inti, the Sun God
	trigger = { 
		OR = { 
			ADM = 2
			advisor = theologian
			has_country_flag = inti_worship
			}
		}
	ai_chance = { 
		factor = 25 
		modifier = { 
			NOT = { legitimacy = 90 }
			factor = 1.4
			}
		modifier = { 
			NOT = { legitimacy = 80 }
			factor = 1.4
			}
		modifier = { 
			has_country_flag = inti_worship
			factor = 1.4
			}
		modifier = { 
			has_country_flag = inti_worship
			government = monarchy
			NOT = { legitimacy = 95 }
			factor = 1.4
			}
		}
	if = {
		limit = { has_country_flag = inti_worship }
		if = { 
			limit = { piety = 0.60 }
			add_legitimacy = 3
			}
		if = { 
			limit = { 
				piety = 0.20 
				NOT = { piety = 0.60 }
				}
			add_legitimacy = 2
			}
		if = { 
			limit = { 
				piety = -0.20 
				NOT = { piety = 0.20 }
				}
			add_legitimacy = 1
			}
		}
	if = {
		limit = { 
			OR = {
				has_country_flag = viracocha_worship
				has_country_flag = pachamama_worship
				has_country_flag = quilla_worship
				}
			}
		add_adm_power = -10
		clr_country_flag = viracocha_worship
		clr_country_flag = pachamama_worship
		clr_country_flag = quilla_worship
		clr_country_flag = clerical_advisor
		clr_country_flag = patriarch_zealous
		clr_country_flag = patriarch_theologian
		clr_country_flag = patriarch_obedient
		clr_country_flag = patriarch_controversial
		clr_country_flag = patriarch_corrupt
		clr_country_flag = patriarch_hostile
		clr_country_flag = patriarch_appointed
		remove_country_modifier = patriarch_zealous_fanatical
		remove_country_modifier = patriarch_zealous_pious
		remove_country_modifier = patriarch_zealous_observant
		remove_country_modifier = patriarch_theologian_fanatical
		remove_country_modifier = patriarch_theologian_pious
		remove_country_modifier = patriarch_theologian_observant
		remove_country_modifier = patriarch_obedient_fanatical
		remove_country_modifier = patriarch_obedient_pious
		remove_country_modifier = patriarch_obedient_observant
		remove_country_modifier = patriarch_controversial_fanatical
		remove_country_modifier = patriarch_controversial_pious
		remove_country_modifier = patriarch_controversial_observant
		remove_country_modifier = patriarch_corrupt_fanatical
		remove_country_modifier = patriarch_corrupt_pious
		remove_country_modifier = patriarch_corrupt_observant
		remove_country_modifier = patriarch_hostile_fanatical
		remove_country_modifier = patriarch_hostile_pious
		remove_country_modifier = patriarch_hostile_observant
		if = { 
			limit = { piety = 0.60 }
			add_legitimacy = -6
			}
		if = { 
			limit = { 
				piety = 0.20 
				NOT = { piety = 0.60 }
				}
			add_legitimacy = -4
			}
		if = { 
			limit = { 
				piety = -0.20 
				NOT = { piety = 0.20 }
				}
			add_legitimacy = -2
			}
		}
	add_ruler_modifier = { name = god_of_the_sun_inti duration = -1 }
	set_country_flag = inti_worship
	every_known_country = { 
		limit = { 
			has_ruler_modifier = god_of_the_sun_inti
			piety = 0.6
			}
		add_opinion = { who = ROOT modifier = same_doctrine_fanatical }
		}
	every_known_country = { 
		limit = { 
			has_ruler_modifier = god_of_the_sun_inti
			piety = 0.2
			NOT = { piety = 0.6 }
			}
		add_opinion = { who = ROOT modifier = same_doctrine_pious }
		}
	every_known_country = { 
		limit = { 
			has_ruler_modifier = god_of_the_sun_inti
			piety = -0.2
			NOT = { piety = 0.2 }
			}
		add_opinion = { who = ROOT modifier = same_doctrine_observant }
		}
	}
option = {
	name = dg_inti.001.e #Quilla, the Moon Goddess
	trigger = { 
		OR = { 
			ADM = 2
			advisor = theologian
			has_country_flag = quilla_worship
			}
		}
	ai_chance = { 
		factor = 25 
		modifier = { 
			NOT = { legitimacy = 90 }
			factor = 1.4
			}
		modifier = { 
			NOT = { legitimacy = 80 }
			factor = 1.4
			}
		modifier = { 
			has_country_flag = quilla_worship
			factor = 1.4
			}
		modifier = { 
			has_country_flag = quilla_worship
			government = monarchy
			NOT = { legitimacy = 95 }
			factor = 1.4
			}
		}
	if = {
		limit = { has_country_flag = quilla_worship }
		if = { 
			limit = { piety = 0.60 }
			add_legitimacy = 3
			}
		if = { 
			limit = { 
				piety = 0.20 
				NOT = { piety = 0.60 }
				}
			add_legitimacy = 2
			}
		if = { 
			limit = { 
				piety = -0.20 
				NOT = { piety = 0.20 }
				}
			add_legitimacy = 1
			}
		}
	if = {
		limit = { 
			OR = {
				has_country_flag = viracocha_worship
				has_country_flag = pachamama_worship
				has_country_flag = inti_worship
				}
			}
		add_adm_power = -10
		clr_country_flag = viracocha_worship
		clr_country_flag = pachamama_worship
		clr_country_flag = inti_worship
		clr_country_flag = clerical_advisor
		clr_country_flag = patriarch_zealous
		clr_country_flag = patriarch_theologian
		clr_country_flag = patriarch_obedient
		clr_country_flag = patriarch_controversial
		clr_country_flag = patriarch_corrupt
		clr_country_flag = patriarch_hostile
		clr_country_flag = patriarch_appointed
		remove_country_modifier = patriarch_zealous_fanatical
		remove_country_modifier = patriarch_zealous_pious
		remove_country_modifier = patriarch_zealous_observant
		remove_country_modifier = patriarch_theologian_fanatical
		remove_country_modifier = patriarch_theologian_pious
		remove_country_modifier = patriarch_theologian_observant
		remove_country_modifier = patriarch_obedient_fanatical
		remove_country_modifier = patriarch_obedient_pious
		remove_country_modifier = patriarch_obedient_observant
		remove_country_modifier = patriarch_controversial_fanatical
		remove_country_modifier = patriarch_controversial_pious
		remove_country_modifier = patriarch_controversial_observant
		remove_country_modifier = patriarch_corrupt_fanatical
		remove_country_modifier = patriarch_corrupt_pious
		remove_country_modifier = patriarch_corrupt_observant
		remove_country_modifier = patriarch_hostile_fanatical
		remove_country_modifier = patriarch_hostile_pious
		remove_country_modifier = patriarch_hostile_observant
		if = { 
			limit = { piety = 0.60 }
			add_legitimacy = -6
			}
		if = { 
			limit = { 
				piety = 0.20 
				NOT = { piety = 0.60 }
				}
			add_legitimacy = -4
			}
		if = { 
			limit = { 
				piety = -0.20 
				NOT = { piety = 0.20 }
				}
			add_legitimacy = -2
			}
		}
	add_ruler_modifier = { name = god_of_the_moon_quilla duration = -1 }
	set_country_flag = quilla_worship
	every_known_country = { 
		limit = { 
			has_ruler_modifier = god_of_the_moon_quilla
			piety = 0.6
			}
		add_opinion = { who = ROOT modifier = same_doctrine_fanatical }
		}
	every_known_country = { 
		limit = { 
			has_ruler_modifier = god_of_the_moon_quilla
			piety = 0.2
			NOT = { piety = 0.6 }
			}
		add_opinion = { who = ROOT modifier = same_doctrine_pious }
		}
	every_known_country = { 
		limit = { 
			has_ruler_modifier = god_of_the_moon_quilla
			piety = -0.2
			NOT = { piety = 0.2 }
			}
		add_opinion = { who = ROOT modifier = same_doctrine_observant }
		}
	}
option = {
	name = dg_inti.001.f #Show respect to all gods equally
	trigger = { 
		OR = { 
			ADM = 3
			advisor = theologian
			AND = {
				NOT = { has_country_flag = pachamama_worship }
				NOT = { has_country_flag = viracocha_worship }
				NOT = { has_country_flag = inti_worship }
				NOT = { has_country_flag = quilla_worship }
				}
			}
		}
	ai_chance = { 
		factor = 10 
		modifier = { 
			NOT = { piety = -0.60 }
			factor = 1.4
			}
		modifier = { 
			NOT = { piety = -0.20 }
			factor = 1.4
			}
		modifier = { 
			piety = 0.20
			factor = 0.7
			}
		modifier = { 
			piety = 0.60
			factor = 0.7
			}
		}
	clr_country_flag = inti_worship
	clr_country_flag = viracocha_worship
	clr_country_flag = pachamama_worship
	clr_country_flag = quilla_worship
	}

}

country_event = { #02 - Royal Mummy

id = dg_inti.002
title = dg_inti.002.t
desc = dg_inti.002.d
picture = inti_mummies

is_triggered_only = yes

trigger = {
	religion = inti
	NOT = { has_new_dynasty = yes }
	government = monarchy
	}

option = { 
	name = dg_inti.002.a #
	ai_chance = { 
		factor = 30 
		modifier = { 
			num_of_loans = 1
			factor = 0.7
			}
		modifier = { 
			num_of_loans = 2
			factor = 0.7
			}
		modifier = { 
			NOT = { years_of_income = 0.25 }
			factor = 0.7
			}
		modifier = { 
			years_of_income = 0.5
			factor = 1.4
			}
		modifier = { 
			years_of_income = 1
			factor = 1.4
			}
		modifier = { 
			NOT = { legitimacy = 90 }
			government = monarchy
			factor = 1.4
			}
		modifier = { 
			NOT = { legitimacy = 80 }
			government = monarchy
			factor = 1.4
			}
		modifier = { 
			NOT = { republican_tradition = 90 }
			government = republic
			factor = 1.4
			}
		modifier = { 
			NOT = { republican_tradition = 80 }
			government = republic
			factor = 1.4
			}
		modifier = { 
			NOT = { piety = -0.20 }
			factor = 0.7
			}
		modifier = { 
			NOT = { piety = -0.60 }
			factor = 0.7
			}
		}
	if = {
		limit = { piety = 0.60 }
		add_prestige = 5
		add_legitimacy = 5
		add_republican_tradition = 5
		}
	if = {
		limit = { 
			piety = 0.20 
			NOT = { piety = 0.60 }
			}
		add_prestige = 4
		add_legitimacy = 4
		add_republican_tradition = 4
		}
	if = {
		limit = { 
			piety = -0.20 
			NOT = { piety = 0.20 }
			}
		add_prestige = 3
		add_legitimacy = 3
		add_republican_tradition = 3
		}
	if = {
		limit = { 
			piety = -0.60 
			NOT = { piety = -0.20 }
			}
		add_prestige = 2
		add_legitimacy = 2
		add_republican_tradition = 2
		}
	if = {
		limit = { NOT = { piety = -0.60 } }
		add_prestige = 1
		add_legitimacy = 1
		add_republican_tradition = 1
		}
	if = { 
		limit = { NOT = { monthly_income = 4 } }
		add_treasury = -4
		}
	if = { 
		limit = { 
			monthly_income = 4
			NOT = { monthly_income = 200 } 
			}
		add_years_of_income = -0.08
		}
	if = { 
		limit = { monthly_income = 200 }
		add_treasury = -200
		}
	hidden_effect = { change_variable = { which = captured_icons value = 1 } }
	}
option = { 
	name = dg_inti.002.b #Rich funeral
	ai_chance = { factor = 40 }
	if = { 
		limit = { NOT = { monthly_income = 4 } }
		add_treasury = -2
		}
	if = { 
		limit = { 
			monthly_income = 4
			NOT = { monthly_income = 200 } 
			}
		add_years_of_income = -0.04
		}
	if = { 
		limit = { monthly_income = 200 }
		add_treasury = -100
		}
	hidden_effect = { change_variable = { which = captured_icons value = 0.5 } }
	}
option = { 
	name = dg_inti.002.c #Simple funeral
	ai_chance = { 
		factor = 30 
		modifier = {
			num_of_loans = 1
			factor = 1.4
			}
		modifier = {
			num_of_loans = 2
			factor = 1.4
			}
		modifier = { 
			NOT = { years_of_income = 0.25 }
			factor = 1.4
			}
		modifier = { 
			years_of_income = 0.5
			factor = 0.7
			}
		modifier = { 
			years_of_income = 1
			factor = 0.7
			}
		modifier = { 
			NOT = { legitimacy = 90 }
			government = monarchy
			factor = 0.7
			}
		modifier = { 
			NOT = { legitimacy = 80 }
			government = monarchy
			factor = 0.7
			}
		modifier = { 
			NOT = { republican_tradition = 90 }
			government = republic
			factor = 0.7
			}
		modifier = { 
			NOT = { republican_tradition = 80 }
			government = republic
			factor = 0.7
			}
		modifier = { 
			piety = 0.60
			factor = 0.7
			}
		modifier = { 
			piety = 0.20
			factor = 0.7
			}
		}
	if = {
		limit = { piety = 0.60 }
		add_prestige = -5
		add_legitimacy = -5
		add_republican_tradition = -5
		}
	if = {
		limit = { 
			piety = 0.20 
			NOT = { piety = 0.60 }
			}
		add_prestige = -4
		add_legitimacy = -4
		add_republican_tradition = -4
		}
	if = {
		limit = { 
			piety = -0.20 
			NOT = { piety = 0.20 }
			}
		add_prestige = -3
		add_legitimacy = -3
		add_republican_tradition = -3
		}
	if = {
		limit = { 
			piety = -0.60 
			NOT = { piety = -0.20 }
			}
		add_prestige = -2
		add_legitimacy = -2
		add_republican_tradition = -2
		}
	if = {
		limit = { NOT = { piety = -0.60 } }
		add_prestige = -1
		add_legitimacy = -1
		add_republican_tradition = -1
		}
	if = { 
		limit = { NOT = { monthly_income = 4 } }
		add_treasury = -1
		}
	if = { 
		limit = { 
			monthly_income = 4
			NOT = { monthly_income = 200 } 
			}
		add_years_of_income = -0.02
		}
	if = { 
		limit = { monthly_income = 200 }
		add_treasury = -50
		}
	}
}

country_event = { #03 - Solar Eclipse

id = dg_inti.003
title = dg_inti.003.t
desc = dg_inti.003.d
picture = inti_ritual

trigger = {
	religion = inti
	piety = -0.60
	}

mean_time_to_happen = { #About 400 years between eclipses, although it varies immensely

	months = 5000

	}

option = {
	name = dg_inti.003.a #The gods demand human sacrifice
	ai_chance = { factor = 30 }
	trigger = { 
		NOT = { 
			OR = {
				has_regency = yes
				AND = { 
					is_monarch_leader = yes
					is_at_war = yes
					}
				}
			}
		}
	add_mil_power = -25
	if = { 
		limit = { num_of_cities = 5 }
		random_owned_province = { add_unrest = 5 }
		}
	if = { 
		limit = { num_of_cities = 10 }
		random_owned_province = { add_unrest = 5 }
		}
	if = { 
		limit = { num_of_cities = 15 }
		random_owned_province = { add_unrest = 5 }
		}
	if = { 
		limit = { num_of_cities = 20 }
		random_owned_province = { add_unrest = 5 }
		}
	if = { 
		limit = { num_of_cities = 25 }
		random_owned_province = { add_unrest = 5 }
		}
	if = { 
		limit = { num_of_cities = 30 }
		random_owned_province = { add_unrest = 5 }
		}
	if = { 
		limit = { num_of_cities = 35 }
		random_owned_province = { add_unrest = 5 }
		}
	if = { 
		limit = { num_of_cities = 40 }
		random_owned_province = { add_unrest = 5 }
		}
	if = { 
		limit = { num_of_cities = 45 }
		random_owned_province = { add_unrest = 5 }
		}
	if = { 
		limit = { num_of_cities = 50 }
		random_owned_province = { add_unrest = 5 }
		}
	}
option = {
	name = dg_inti.003.b #Slaughter llamas to appease the gods
	ai_chance = { factor = 40 }
	trigger = { 
		NOT = { 
			OR = {
				has_regency = yes
				AND = { 
					is_monarch_leader = yes
					is_at_war = yes
					}
				}
			}
		}
	if = { 
		limit = { NOT = { monthly_income = 4 } }
		add_treasury = -1
		}
	if = { 
		limit = { 
			monthly_income = 4
			NOT = { monthly_income = 200 } 
			}
		add_years_of_income = -0.02
		}
	if = { 
		limit = { monthly_income = 200 }
		add_treasury = -50
		}
	if = {	
		limit = { piety = 0.60 }
		random = { 
			chance = 40
			subtract_stability_1 = yes
			}
		}	
	if = {	
		limit = { piety = 0.20 NOT = { piety = 0.60 } }
		random = { 
			chance = 30
			subtract_stability_2 = yes
			}
		}	
	if = {	
		limit = { piety = -0.20 NOT = { piety = 0.20 } }
		random = { 
			chance = 20
			subtract_stability_2 = yes
			}
		}	
	if = {	
		limit = { piety = -0.60 NOT = { piety = -0.20 } }
		random = { 
			chance = 10
			subtract_stability_2 = yes
			}
		}	
	}
option = {
	name = dg_inti.003.c #Hope his anger passes soon
	ai_chance = { factor = 30 }
	if = {	
		limit = { piety = 0.60 }
		subtract_stability_2 = yes
		}	
	if = {	
		limit = { piety = 0.20 NOT = { piety = 0.60 } }
		random = { 
			chance = 75
			subtract_stability_2 = yes
			}
		}	
	if = {	
		limit = { piety = -0.20 NOT = { piety = 0.20 } }
		random = { 
			chance = 50
			subtract_stability_2 = yes
			}
		}	
	if = {	
		limit = { piety = -0.60 NOT = { piety = -0.20 } }
		random = { 
			chance = 25
			subtract_stability_2 = yes
			}
		}	
	}
	
}

country_event = { #04 - Inti Raymi

id = dg_inti.004
title = dg_inti.004.t
desc = dg_inti.004.d
picture = inti_ritual

trigger = {
	religion = inti
	NOT = { has_country_flag = inti_raymi }
	ADM = 4
	years_of_income = 0.5
	NOT = { any_neighbor_country = { num_of_cities = ROOT } }
	is_month = 7
	NOT = { is_month = 8 }
	is_at_war = no
	government = monarchy
	OR = { 
		ai = yes
		has_country_flag = religious_news_major
		}
	}
	
mean_time_to_happen = {

	months = 1

	}

immediate = { set_country_flag = inti_raymi }

option = {
	name = dg_inti.004.a #An incredible celebration
	ai_chance = { 
		factor = 70
		modifier = {
			stability = 3
			factor = 0.7
			}
		modifier = {
			stability = 2
			factor = 0.7
			}
		modifier = {
			legitimacy = 100
			factor = 0.7
			}
		modifier = {
			legitimacy = 90
			factor = 0.7
			}
		modifier = {
			prestige = 100
			factor = 0.7
			}
		modifier = {
			prestige = 80
			factor = 0.7
			}
		modifier = {
			prestige = 60
			factor = 0.7
			}
		modifier = {
			num_of_loans = 1
			factor = 0.5
			}
		modifier = {
			NOT = { war_exhaustion = 2 }
			factor = 0.7
			}
		}
	add_years_of_income = -0.5
	add_legitimacy = 20
	add_prestige = 10
	add_war_exhaustion = -2
	add_stability_1 = yes
	}
option = {
	name = dg_inti.004.b #A great celebration
	ai_chance = { factor = 20 }
	add_years_of_income = -0.25
	add_legitimacy = 10
	add_prestige = 5
	add_war_exhaustion = -1
	}
option = {
	name = dg_inti.004.c #A small celebration
	ai_chance = {
		factor = 10
		modifier = {
			stability = 3
			factor = 1.4
			}
		modifier = {
			stability = 2
			factor = 1.4
			}
		modifier = {
			legitimacy = 100
			factor = 1.4
			}
		modifier = {
			legitimacy = 90
			factor = 1.4
			}
		modifier = {
			prestige = 100
			factor = 1.4
			}
		modifier = {
			prestige = 80
			factor = 1.4
			}
		modifier = {
			prestige = 60
			factor = 1.4
			}
		modifier = {
			num_of_loans = 1
			factor = 2
			}
		modifier = {
			NOT = { war_exhaustion = 2 }
			factor = 1.4
			}
		}
	add_years_of_income = -0.10
	add_legitimacy = 5
	add_prestige = 1
	}
}


#############################
# Sacred Places and Spirits #
#############################

country_event = { #11 - Children of the Stars

id = dg_inti.011
title = dg_inti.011.t
desc = dg_inti.011.d
picture = inti_ritual

trigger = { 
	religion = inti
	OR = { 
		NOT = { stability = 0 }
		war_exhaustion = 4
		num_of_loans = 3
		NOT = { legitimacy = 75 }
		NOT = { manpower_percentage = 0.25 }
		}
	OR = { 
		ai = yes
		has_country_flag = religious_news_trivial
		}
	}

mean_time_to_happen = {

	months = 100
	
	}
	
option = {
	name = dg_inti.011.a #The gods demand a sacrifice
	ai_chance = { 
		factor = 70 
		modifier = { 
			piety = 0.60
			factor = 1.4
			}
		modifier = { 
			piety = 0.20
			factor = 1.4
			}
		modifier = { 
			NOT = { piety = -0.20 }
			factor = 0.7
			}
		}
	add_treasury = -20
	random_owned_province = { 
		add_local_autonomy = -25
		add_unrest = 5
		}
	}
option = {
	name = dg_inti.011.b #The gods are not so bloodthirsty
	ai_chance = { factor = 30 }
	}
	
}

province_event = { #12 - Great Huaca

id = dg_inti.012
title = dg_inti.012.t
desc = dg_inti.012.d
picture = inti_huaca

trigger = {
	religion = inti
	has_owner_religion = yes
	NOT = { has_province_modifier = pilgrimage_route }
	NOT = { any_neighbor_province = { has_province_modifier = pilgrimage_route } }
	NOT = { any_neighbor_province = { any_neighbor_province = { has_province_modifier = pilgrimage_route } } }
	owner = { piety = -0.60 }
	has_siege = no
	controlled_by = owner
	owner = {
		OR = { 
			ai = yes
			has_country_flag = religious_news_major
			}
		}
	}

mean_time_to_happen = { 

	months = 5000 

	modifier = { 
		has_province_modifier = great_temple
		factor = 0.5
		}
	modifier = { 
		owner = { piety = 0.60 }
		factor = 0.7
		}
	modifier = { 
		owner = { piety = 0.20 }
		factor = 0.7
		}
	modifier = { 
		owner = { NOT = { piety = -0.20 } }
		factor = 2
		}
	modifier = {
		owner = { NOT = { num_of_cities = 3 } }
		factor = 0.5
		}
	modifier = { 
		owner = { num_of_cities = 5 }
		factor = 1.6
		}
	modifier = {
		owner = { num_of_cities = 10 }
		factor = 1.6
		}
	modifier = {
		owner = { num_of_cities = 20 }
		factor = 1.6
		}
	modifier = {
		owner = { num_of_cities = 40 }
		factor = 1.6
		}
	modifier = {
		owner = { num_of_cities = 80 }
		factor = 1.6
		}
	modifier = {
		owner = { num_of_cities = 160 }
		factor = 1.6
		}
	modifier = {
		owner = { has_country_flag = patriarch_corrupt }
		factor = 2
		}
	modifier = {
		owner = { has_country_flag = patriarch_zealous }
		factor = 0.7
		}
	}

option = {
	name = dg_inti.012.a #Build a pyramid
	ai_chance = { 
		factor = 40
		modifier = { 
			owner = { piety = 0.60 }
			factor = 1.4
			}
		modifier = { 
			owner = { piety = 0.20 }
			factor = 1.4
			}
		modifier = { 
			owner = { NOT = { piety = -0.20 } }
			factor = 0.5
			}
		modifier = { 
			owner = { monthly_income = 10 }
			factor = 1.4
			}
		modifier = { 
			owner = { monthly_income = 20 }
			factor = 1.4
			}
		modifier = { 
			owner = { monthly_income = 40 }
			factor = 1.4
			}
		modifier = { 
			owner = { monthly_income = 80 }
			factor = 1.4
			}
		modifier = { 
			owner = { num_of_loans = 1 }
			factor = 0.7
			}
		modifier = { 
			owner = { num_of_loans = 2 }
			factor = 0.7
			}
		modifier = { 
			owner = { is_bankrupt = yes }
			factor = 0.5
			}
		}
	add_province_modifier = { name = pilgrimage_route duration = -1 }
	owner = { add_treasury = -25 }
	if = { 
		limit = { owner = { piety = 0.60 } }
		owner = { add_prestige = 4 }
		}
	if = { 
		limit = { owner = { piety = 0.20 NOT = { piety = 0.60 } } }
		owner = { add_prestige = 3 }
		}
	if = { 
		limit = { owner = { piety = -0.20 NOT = { piety = 0.20 } } }
		owner = { add_prestige = 2 }
		}
	if = { 
		limit = { owner = { piety = -0.60 NOT = { piety = -0.20 } } }
		owner = { add_prestige = 1 }
		}
	}
option = {
	name = dg_inti.012.b #Honor the gods with prayer
	ai_chance = { factor = 60 }
	if = { 
		limit = { owner = { piety = 0.60 } }
		add_province_modifier = { name = pilgrimage_route duration = 4000 }
		}
	if = { 
		limit = { owner = { piety = 0.20 NOT = { piety = 0.60 } } }
		add_province_modifier = { name = pilgrimage_route duration = 3000 }
		}
	if = { 
		limit = { owner = { piety = -0.20 NOT = { piety = 0.20 } } }
		add_province_modifier = { name = pilgrimage_route duration = 2000 }
		}
	if = { 
		limit = { owner = { piety = -0.60 NOT = { piety = -0.20 } } }
		add_province_modifier = { name = pilgrimage_route duration = 1000 }
		}
	}

}

country_event = { #13 - Revolt of the Huacas (1564-72 historically)

id = dg_inti.013
title = dg_inti.013.t
desc = dg_inti.013.d
picture = inti_huaca

trigger = {
	is_colonial_nation = yes
	any_owned_province = { religion = inti }
	NOT = { religion_group = new_world_pagan }
	NOT = { has_country_flag = taki_onqoy }
	NOT = { inti = 0 }
	}

mean_time_to_happen = {

	months = 250 #30 years after conquest

	modifier = {
		any_owned_province = { has_province_modifier = syncretism }
		factor = 0.5
		}
	}

immediate = { set_country_flag = taki_onqoy }
	
option = {
	name = dg_inti.013.a #Crush them
	ai_chance = { factor = 50 }
	if = {
		limit = {
			any_owned_province = {
				check_variable = { which = inti value = 2 }
				has_province_modifier = syncretism
				}
			}
		every_owned_province = {
			limit = { 
				check_variable = { which = inti value = 2 }
				has_province_modifier = syncretism
				}
			remove_province_modifier = syncretism
			custom_tooltip = inti_10
			hidden_effect = {
				change_variable = { which = province_religion value = -2 }
				change_variable = { which = inti value = 2 }
				}
			}
		}
	if = {
		limit = { 
			any_owned_province = { 
				check_variable = { which = inti value = 4 } 
				NOT = { check_variable = { which = inti value = 8 } }
				}
			}
		every_owned_province = {
			limit = { 
				check_variable = { which = inti value = 4 } 
				NOT = { check_variable = { which = inti value = 8 } }
				}
			add_unrest = 2
			}
		}
	if = {
		limit = { 
			any_owned_province = { 
				check_variable = { which = inti value = 8 } 
				NOT = { check_variable = { which = inti value = 12 } }
				}
			}
		every_owned_province = {
			limit = { 
				check_variable = { which = inti value = 8 } 
				NOT = { check_variable = { which = inti value = 12 } }
				}
			add_unrest = 5
			}
		}
	if = {
		limit = { any_owned_province = { check_variable = { which = inti value = 12 } } }
		every_owned_province = {
			limit = { check_variable = { which = inti value = 12 } }
			add_unrest = 10
			}
		}
	}
option = {
	name = dg_inti.012.b #Support the movement
	trigger = { has_country_flag = was_inti }
	ai_chance = { factor = 50 }
	if = {
		limit = {
			any_owned_province = {
				check_variable = { which = inti value = 2 }
				has_province_modifier = syncretism
				}
			}
		every_owned_province = {
			limit = { 
				check_variable = { which = inti value = 2 }
				has_province_modifier = syncretism
				}
			remove_province_modifier = syncretism
			custom_tooltip = inti_10
			hidden_effect = {
				change_variable = { which = province_religion value = -2 }
				change_variable = { which = inti value = 2 }
				}
			}
		}
	set_country_flag = voluntary_conversion
	if = {
		limit = { NOT = { is_religion_enabled = inti } }
		custom_tooltip = convert_dangerous_religion
		subtract_stability_1 = yes
	}
	if = { 
		limit = { 
			NOT = { capital_scope = { check_variable = { which = inti_population value = 25 } } }
			}
		custom_tooltip = convert_population_0
		subtract_stability_2 = yes
		}
	if = { 
		limit = { 
			capital_scope = { check_variable = { which = inti_population value = 25   } }
			NOT = { capital_scope = { check_variable = { which = inti_population value = 50 } } }
			}
		custom_tooltip = convert_population_25
		subtract_stability_1 = yes
		}
	if = { 
		limit = { 
			capital_scope = { check_variable = { which = inti_population value = 50 } }
			NOT = { capital_scope = { check_variable = { which = inti_population value = 75 } } }
			}
		custom_tooltip = convert_population_50
		}
	if = { 
		limit = { 
			capital_scope = { check_variable = { which = inti_population value = 50 } }
			capital_scope = { check_variable = { which = inti_population value = 75   } }
			}
		custom_tooltip = convert_population_75
		add_stability_1 = yes
		}
	if = { 
		limit = { patriarch_authority = 0.75 }
		custom_tooltip = convert_church_strong
		subtract_stability_2 = yes
		}
	if = { 
		limit = { 
			patriarch_authority = 0.50
			NOT = { patriarch_authority = 0.75 }
			}
		custom_tooltip = convert_piety_moderate
		subtract_stability_1 = yes
		}
	if = { 
		limit = { 
			patriarch_authority = 0.25
			NOT = { patriarch_authority = 0.50 }
			}
		custom_tooltip = convert_church_weak
		}
	if = { 
		limit = { NOT = { patriarch_authority = 0.25 } }
		custom_tooltip = convert_church_insignificant
		}
	if = {
		limit = { 
			NOT = { capital_scope = { religion = inti } }
			NOT = { ADM = 3 }
			}
		custom_tooltip = convert_ruler_incompetent
		}
	if = {
		limit = { 
			capital_scope = { religion = inti }
			NOT = { ADM = 3 }
			}
		custom_tooltip = convert_ruler_weak
		add_stability_1 = yes
		}
	if = {
		limit = { 
			NOT = { capital_scope = { religion = inti } }
			ADM = 3
			NOT = { ADM = 5 }
			}
		custom_tooltip = convert_ruler_weak
		add_stability_1 = yes
		}
	if = {
		limit = { 
			capital_scope = { religion = inti }
			ADM = 3
			NOT = { ADM = 5 }
			}
		custom_tooltip = convert_ruler_moderate
		add_stability_2 = yes
		}
	if = {
		limit = { 
			NOT = { capital_scope = { religion = inti } }
			ADM = 5
			}
		custom_tooltip = convert_ruler_moderate
		add_stability_2 = yes
		}
	if = {
		limit = { 
			capital_scope = { religion = inti }
			ADM = 5
			}
		custom_tooltip = convert_ruler_strong
		add_stability_3 = yes
		}
	if = {
		limit = { advisor = theologian }
		custom_tooltip = convert_theologian
		add_stability_1 = yes
		}
	if = {
		limit = { 
			NOT = { has_country_flag = was_inti }
			check_variable = { which = sympathy_to_old_religion value = 1 }
			}
		custom_tooltip = convert_recent
		add_stability_1 = yes
		}
	if = {
		limit = { 
			has_country_flag = was_inti
			NOT = { check_variable = { which = sympathy_to_old_religion value = 1 } }
			}
		custom_tooltip = convert_previous_old
		add_stability_1 = yes
		}
	if = {
		limit = { 
			has_country_flag = was_inti
			check_variable = { which = sympathy_to_old_religion value = 1 }
			}
		custom_tooltip = convert_previous_recent
		add_stability_2 = yes
		}
	change_religion = inti
	}
	
}

