#Some events replaced by DEI GRATIA versions

# Lacking Support
country_event = {
	id = papal_state.1083
	title = "EVTNAME1083"
	desc = "EVTDESC1083"
	picture = POPE_PREACHING_eventPicture

	trigger = {
		government = papal_government
		overextension_percentage = 0.25
		NOT = { has_country_flag = unsupportive_cardinals }
	}

	mean_time_to_happen = {
		months = 180

		modifier = {
			factor = 0.9
			NOT = { dip = 1 }
		}
		modifier = {
			factor = 0.9
			NOT = { adm = 1 }
		}
		modifier = {
			factor = 1.1
			adm = 4
		}
		modifier = {
			factor = 1.1
			adm = 5
		}
		modifier = {
			factor = 1.1
			adm = 6
		}
		modifier = {
			factor = 1.1
			stability = 2
		}
		modifier = {
			factor = 1.1
			stability = 3
		}
		modifier = {
			factor = 0.9
			NOT = { stability = -1 }
		}
		modifier = {
			factor = 0.9
			NOT = { stability = -2 }
		}
	}

	option = {
		name = "EVTOPTA1083"		# Hire someone to investigate the matter
		ai_chance = { factor = 55 }
		set_country_flag = unsupportive_cardinals
		add_country_modifier = {
			name = investigating_spies
			duration = 1825
		}
		add_treasury = -25
	}
	option = {
		name = "EVTOPTB1083"		# Just try to prove them wrong
		ai_chance = { factor = 45 }
		set_country_flag = unsupportive_cardinals
		random_list = {
			50 = { add_prestige = 5 }
			50 = { add_prestige = -5 }
		}		
	}
}

# Possible Infiltrator
country_event = {
	id = papal_state.1084
	title = "EVTNAME1084"
	desc = "EVTDESC1084"
	picture = POPE_PREACHING_eventPicture

	trigger = {
		government = papal_government
		NOT = { adm = 1 }
		NOT = { has_country_flag = cardinal_infiltrator }
	}

	mean_time_to_happen = {
		months = 180

		modifier = {
			factor = 1.1
			advisor = spymaster
		}
		modifier = {
			factor = 1.1
			spymaster = 2
		}
		modifier = {
			factor = 1.1
			spymaster = 3
		}
		modifier = {
			factor = 0.9
			NOT = { stability = -1 }
		}
		modifier = {
			factor = 0.9
			NOT = { stability = -2 }
		}
		modifier = {
			factor = 1.1
			stability = 3
		}
		modifier = {
			factor = 1.1
			stability = 2
		}
	}

	option = {
		name = "EVTOPTA1084"		# Take his word for it
		ai_chance = { factor = 55 }
		set_country_flag = cardinal_infiltrator
		random = {
			chance = 40
			subtract_stability_1 = yes
		}
	}
	option = {
		name = "EVTOPTB1084"		# Ask for some proof
		ai_chance = { factor = 45 }
		set_country_flag = cardinal_infiltrator
		add_country_modifier = {
			name = "infiltrator_in_the_cardinal_office"
			duration = 730
		}
	}
}
