15 = "Ostjutlandia"
32 = "Vyborg"
34 = "Izhora"
37 = "Pernov"
39 = "Kurlandia"
40 = "Malaya Litva"
41 = "Vostochnaya Prussiya"
43 = "Pomorye"
47 = "Zapadnaya Pommerania"
50 = "Berlin"
61 = "Gannover"
65 = "Munhin"
87 = "Flandia"
139 = "Bosnija"
141 = "Serbia"
183 = "Parizh"
184 = "Orlean"
237 = "Oksford"
255 = "Kuyaviya"
256 = "Mazoviya"
257 = "Plotsk"
258 = "Peremyshl"
259 = "Lyublin"
260 = "Galitsiya"
261 = "Zhitomir"
271 = "Podlayshye"
272 = "Aukshtaytiya"
273 = "Latgalia"
274 = "Pskov"
275 = "Polotsk"
277 = "Obdorsk"
280 = "Kiev"
282 = "Krym"
283 = "Brest-Litowsk"
284 = "Dikoye Pole"
285 = "Kherson"
289 = "Chernigov"
290 = "Kostroma"
291 = "Belozersk"
292 = "Staraya Russa"
293 = "Smolensk"
294 = "Tver"
295 = "Moskva"
296 = "Grodno"
297 = "Vitebsk"
298 = "Bryansk"
299 = "Pereyaslavl"
300 = "Zaporozhskaya Sech"
301 = "Ryazan"
302 = "Donbass"
303 = "Polovetskaya Step"
305 = "Kursk"
306 = "Murom"
307 = "Vladimir"
308 = "Yaroslavl"
309 = "Severnaya Rus"
310 = "Velikiye Luki"
311 = "Starodub"
312 = "Vologda"
313 = "Simbirsk"
314 = "Dvina"
367 = "Siniye Ostrova"
1262 = "Priozersk"
1263 = "Jurjev"
1281 = "Volodymyr"
1282 = "Uzgorod"
1300 = "Abhazija"
1402 = "Tsargrad"
2756 = "Mainch"
