name = "The Long War"
#casus_belli = cb_conquest type = take_capital_conquest
war_goal = {
	type = take_claim
	casus_belli = cb_conquest
	province = 135 # Sopron
}

1593.7.29 = {
	add_attacker = TUR
	add_defender = HAB
}

# Habsburg-Transylvania alliance
1595.1.28 = {
	add_defender = TRA
}

# Battle of Keresztes
1596.10.24 = { 
	battle = { 
		name = "Keresztes" 
		location = 155
		attacker = { 
			commander = "Mehmet II" 			#  Mehmet III
			infantry = 60000
			cavalry =  30000
			losses = 25			# percent 
			country = TUR
		} 
		defender = { 
			commander = "Maximilian Habsburg"				# Maximilian Habsburg
			infantry = 30000
			cavalry = 15000
			losses = 65			# percent
			country = HAB
		} 
		result = no
	} 
}

# Abdication of Zsigmond Bathori
1599.3.17 = {
	rem_defender = TRA
}

# Peace of Zitava
1606.11.11 = {
	rem_attacker = TUR
	rem_defender = HAB
}
