name = "War of 1812"
#casus_belli = cb_trade_war
war_goal = {
	type = superiority_trade_mutual
	casus_belli = cb_trade_war
}

1812.6.18  = {
	add_attacker = USA
	add_defender = GBR
}

1812.10.13 = {
	battle = {
		name = "Queenston Heights"
		location = 986
		attacker = {
			commander = "Stephen Van Rensselaer"	# Stephen Van Rensselaer
			infantry = 1500
			losses = 2	# percent
			country = USA
		}
		defender = {
			commander = "Isaac Brock"	# Isaac Brock 
			infantry = 1300
			losses = 1	# percent
			country = GBR
		}
		result = no
	}
}

1813.2.22 = {
	battle = {
		name = "Ogdensburg"
		location = 964
		attacker = {
			commander = "Benjamin Forsyth"	# Benjamin Forsyth
			infantry = 250
			losses = 36	# percent
			country = USA
		}
		defender = {
			commander = "George MacDonnell"	# George MacDonnell
			infantry = 500
			losses = 11	# percent
			country = GBR
		}
		result = no
	}
}

1813.4.27 = {
	battle = {
		name = "York"
		location = 986
		attacker = {
			commander = "Zebulon Pike "	# Zebulon Pike 
			infantry = 2000
			losses = 16	# percent
			country = USA
		}
		defender = {
			commander = "Roger Sheaffe"	# Roger Sheaffe
			infantry = 700
			losses = 21	# percent
			country = GBR
		}
		result = yes
	}
}

1813.6.6 = {
	battle = {
		name = "Stoney Creek"
		location = 987
		attacker = {
			commander = "John Chandler"	# John Chandler
			infantry = 3400
			losses = 2	# percent
			country = USA
		}
		defender = {
			commander = "John Vincent"	# John Vincent
			infantry = 700
			losses = 3	# percent
			country = GBR
		}
		result = no
	}
}

1813.8.15 = {
	battle = {
		name = "Detroit"
		location = 944
		attacker = {
			commander = "William Hull"	# William Hull
			infantry = 2500
			losses = 1	# percent
			country = USA
		}
		defender = {
			commander = "Isaac Brock"	# Isaac Brock
			infantry = 1250
			losses = 1	# percent
			country = GBR
		}
		result = no
	}
}

1813.10.25 = {
	battle = {
		name = "Chateauguay"
		location = 994
		attacker = {
			commander = "Wade Hampton"	# Wade Hampton
			infantry = 4000
			losses = 1	# percent
			country = USA
		}
		defender = {
			commander = "Charles de Salaberry"	# Charles de Salaberry
			infantry = 570
			losses = 1	# percent
			country = GBR
		}
		result = no
	}
}

1813.11.11 = {
	battle = {
		name = "Crysler's farm"
		location = 989
		attacker = {
			commander = "James Wilkinson"	# James Wilkinson
			infantry = 2500
			losses = 1	# percent
			country = USA
		}
		defender = {
			commander = "William Mulcaster"	# William Mulcaster
			infantry = 800
			losses = 4	# percent
			country = GBR
		}
		result = no
	}
}

1813.11.15 = {
	battle = {
		name = "Lacolle Mills"
		location = 994
		attacker = {
			commander = "Henry Dearborn"	# Henry Dearborn
			infantry = 600
			losses = 2	# percent
			country = USA
		}
		defender = {
			commander = "Charles de Salaberry"	# Charles de Salaberry
			infantry = 500
			losses = 0	# percent
			country = GBR
		}
		result = no
	}
}

1814.7.5 = {
	battle = {
		name = "Chippawa"
		location = 987
		attacker = {
			commander = "Jacob Brown"	# Jacob Brown
			infantry = 3500
			losses = 2	# percent
			country = USA
		}
		defender = {
			commander = "Phineas Riall"	# Phineas Riall
			infantry = 2000
			losses = 7	# percent
			country = GBR
		}
		result = no
	}
}

1814.8.24 = {
	battle = {
		name = "Bladensburg"
		location = 953
		attacker = {
			commander = "William H. Winder"	# William H. Winder
			infantry = 4500
			losses = 1	# percent
			country = USA
		}
		defender = {
			commander = "Robert Ross"	# Robert Ross
			infantry = 7000
			losses = 1	# percent
			country = GBR
		}
		result = no
	}
}

1814.9.6 = {
	battle = {
		name = "Plattsburgh"
		location = 964
		attacker = {
			commander = "Thomas MacDonough"	# Thomas MacDonough
			infantry = 3400
			losses = 6	# percent
			country = USA
		}
		defender = {
			commander = "George Prevost"	# George Prevost
			infantry = 11000
			losses = 3	# percent
			country = GBR
		}
		result = no
	}
}

# Treaty of Ghent
1814.12.24 = {
	rem_attacker = USA
	rem_defender = GBR
}
