# 1074 - Obdoriya

culture = nenet
religion = tengri_pagan_reformed
capital = "Mangazeya"
trade_goods = unknown
hre = no
base_tax = 1
base_production = 1
#base_manpower = 0.5
base_manpower = 1.0
native_size = 50
native_ferocity = 2
native_hostileness = 1

1585.1.1 = {
	discovered_by = RUS
	owner = RUS
	controller = RUS
	add_core = RUS
	remove_core = SIB
	trade_goods = lumber
	set_province_flag = trade_good_set
} # Yermak Timofeevich, annexed to Muscovy
1586.1.1 = {
	citysize = 3198
	}
1600.1.1 = { citysize = 3873 }
1606.1.1 = { unrest = 3 } # Rebellions against Russia
1608.1.1 = { unrest = 5 }
1610.1.1 = { unrest = 2 culture = russian religion = orthodox }
1616.1.1 = { unrest = 6 }
1620.1.1 = { unrest = 0 }
1650.1.1 = {
	citysize = 4311
	
   	fort_14th = yes
} # Became an important trade center
1700.1.1 = { citysize = 6210 }
1750.1.1 = { citysize = 7005 }
1760.1.1 = {  }
1800.1.1 = { citysize = 9420 }
