# 146 - Athens

owner = ATH
controller = ATH
culture = greek
religion = orthodox
capital = "Athens"
trade_goods = olive
hre = no
base_tax = 8
base_production = 8
base_manpower = 3
is_city = yes
discovered_by = CIR
discovered_by = muslim
discovered_by = eastern
discovered_by = western
discovered_by = turkishtech
add_permanent_claim = BYZ

1000.1.1   = {
	add_permanent_province_modifier = { 
		name = "natural_harbour" 
		duration = -1 
		}
}
1088.1.1 = { dock = yes }
1100.1.1 = { marketplace = yes }
#1111.1.1 = { post_system = yes }
1119.1.1 = { bailiff = yes }
1300.1.1 = { road_network = yes }
1356.1.1  = {
#	owner = SIC
#	controller = SIC
	add_core = ATH
#	add_core = SIC
}
#1388.1.1  = {
#	owner = ATH
#	controller = ATH
#}
1444.1.1 = {
	add_core = TUR
}
1456.1.1  = {
	owner = TUR
	controller = TUR
}
1466.1.1  = { owner = VEN controller = VEN } # Brief control
1466.11.1 = { owner = TUR controller = TUR } # Estimated
1481.6.1  = { controller = REB } # Civil war, Bayezid & Jem
1482.7.26 = { controller = TUR } # Jem escapes to Rhodes
1515.2.1 = { training_fields = yes }
1522.3.20 = { dock = no naval_arsenal = yes }
1530.1.3 = {
	road_network = no paved_road_network = yes 
}

1555.1.1  = { unrest = 5  } # General discontent with the Janissaries' dominance
1556.1.1  = { unrest = 0 }
1620.1.1  = { unrest = 5 } # General discontent and occasional rebellions
1640.1.1  = { unrest = 2 }
1660.1.1  = { unrest = 0 }
1750.1.1  = {
	
	add_core = GRE 
}
1821.3.1  = {
	controller = REB
}
1829.1.1  = {
	owner = GRE
	controller = GRE
}
1832.5.7  = {
	remove_core = TUR
} # Treaty of Constantinople
