# 1469 - Tepehuán
# GG - 22/07/2008

culture = chichimecha
religion = nahuatl
capital = "Ubamari"
trade_goods = unknown
hre = no
base_tax = 1
base_production = 1
#base_manpower = 0.5
base_manpower = 1.0
native_size = 20
native_ferocity = 4
native_hostileness = 8
discovered_by = mesoamerican

1540.1.1   = {
	discovered_by = SPA
} # Francisco Vázquez de Coronado y Luján
1598.1.1   = {
	owner = SPA
	controller = SPA
	capital = "Parras de la Fuente"
	citysize = 200
	culture = castillian
	religion = catholic
} # Francisco de Ibarra
1623.1.1   = {
	add_core = SPA
	citysize = 1000
}
1650.1.1   = {
	citysize = 1500
}
1700.1.1   = {
	citysize = 3000
}
1750.1.1   = {
	add_core = MEX
	culture = mexican
	citysize = 7500
}
1800.1.1   = {
	citysize = 15000
}
1810.9.16  = {
	owner = MEX
	controller = MEX
} # Declaration of Independence
1821.8.24  = {
	remove_core = SPA
} # Treaty of Cordóba
