# No previous file for Harar

owner = ADA
controller = ADA
add_core = ADA
add_core = HAR
culture = somali # Harerge
religion = sunni
capital = "Deker"
citysize = 5000
base_manpower = 3
trade_goods = wool
hre = no
base_tax = 6
base_production = 6
fort_15th = yes
discovered_by = ETH
discovered_by = ADA
discovered_by = ZAN
discovered_by = AJU
discovered_by = MBA
discovered_by = MLI
discovered_by = ZIM
discovered_by = indian
discovered_by = muslim
discovered_by = turkishtech
discovered_by = east_african

1473.1.1 = { unrest = 5 } # Raids by Bayda Maryam into Adal to enforce fealty
1476.1.1 = { unrest = 5 } # Raids by Bayda Maryam into Adal to enforce fealty
1477.1.1 = { unrest = 0 } # Raids by Bayda Maryam defeated
1478.1.1 = { unrest = 5 } # Raids by Eskander into Adal to enforce fealty
1479.1.1 = { unrest = 0 } # Raids by Eskander defeated
1515.2.1 = { training_fields = yes }
1517.8.1 = { unrest = 9 } # Lebna Dengel destroys Mahfuz' army, succession dispute begins
1520.1.1 = { capital = "Harer" } # Adal Sultans shift capital
1525.1.1 = { unrest = 0 } # Imam Ahmad Gran secures control over Adal
1530.1.1 = { trade_goods = coffee }
1550.1.1 = { discovered_by = TUR }
1554.1.1 = { unrest = 9 } # Invasion by Oromo causes widespread destruction
1559.1.1 = { unrest = 8 } # Invasion by Galawdewos
1562.1.1 = { unrest = 5 } # Invasion by Oromo
1567.1.1 = { unrest = 5 } # Invasion by Oromo
1568.1.1 = {
	unrest = 0
	owner = HAR
	controller = HAR
}
1577.1.1 = { owner = AFA controller = AFA }
1647.1.1 = { owner = HAR controller = HAR }
1650.1.1 = { citysize = 5000 }
1662.1.1 = { unrest = 5 } # Conflict with local Oromo
1663.1.1 = { unrest = 0 }
