# No previous file for Uda

owner = YUA
controller = YUA
culture = buryat
religion = tengri_pagan_reformed
capital = "Ust-Uda"
trade_goods = fur
hre = no
base_tax = 2
base_production = 2
base_manpower = 1
is_city = yes
discovered_by = steppestech

1356.1.1 = {
	add_core = YUA
}
1392.1.1 = {
	owner = BRT
	controller = BRT
	remove_core = YUA
}
1653.1.1 = { discovered_by = RUS } # Pyotr Beketov
1656.1.1 = {
	owner = RUS
	controller = RUS
   	religion = orthodox
   	culture = russian
}
1691.1.1 = { add_core = RUS citysize = 1180 }
