# 806 - Chanchan

owner = CHM
controller = CHM
add_core = CHM
culture = chimu
religion = inti
capital = "Chanchan"
trade_goods = fish
hre = no
base_tax = 8
base_production = 8
base_manpower = 5
is_city = yes
discovered_by = south_american

1356.1.1 = {
}
1493.1.1   = {
	owner = INC
	controller = INC
	add_core = INC
	paved_road_network = yes
}
1525.1.1   = { discovered_by = SPA }	#FB was 1524
1529.1.1 = {
	owner = QUI
	controller = QUI
	add_core = QUI
	add_core = CZC
	remove_core = INC
	bailiff = yes
	constable = yes
	marketplace = yes
}
1532.9.1   = {
	add_core = SPA
	owner = SPA
	controller = SPA
	culture = castillian
	religion = catholic
}
1537.1.1  = { unrest = 8 } # Fighting broke out when Almagro seized Cuzco
1538.1.1  = { unrest = 5 } # Almagro is defeated & executed
1541.1.1  = { unrest = 6 } # Pizzaro is assassinated by supporters of Almagro, his brother assumed control
1548.1.1  = { unrest = 0 } # Gonzalo Pizzaro is also executed & Spain succeeds in reasserting its authority
1750.1.1  = {
	add_core = PEU
	culture = peruvian
}
1810.9.18  = {
	owner = PEU
	controller = PEU
}
1818.2.12  = {
	remove_core = SPA
}
