fortification_tax = {
	#Provinces contribute to upkeep of fortifications

	category = 1
	
	allow = {
		always = yes
	}
	
	effect = {
		
	}
	
	modifier = {
		fort_maintenance_modifier = -0.15
		defensiveness = 0.15
	}

	chance = {
		factor = 1
		modifier = {
			factor = 0
			NOT = { fort_15th = 2 }
			NOT = { fort_16th = 2 }
			NOT = { fort_17th = 2 }
			NOT = { fort_18th = 2 }
		}
	}
	
	ai_will_do = {
		factor = 1
	}	
}