harmonization_of_laws = {

	category = 3

	allow = {
		OR = {
			num_of_vassals = 2
			num_of_unions = 2
			AND = {
				num_of_vassals = 1
				num_of_unions = 1
			}
		}
		government = republic
	}
	
	effect = {
		random_subject_country = {
			add_opinion = {
				who = ROOT  #Was FROM but did not make sense
				modifier = parliament_closer_ties
			}
		}
	}
	
	modifier = {
		diplomatic_annexation_cost = -0.15
		vassal_income = 0.05
	}

	ai_will_do = {
		factor = 1
		modifier = {
			factor = 2
			num_of_vassals = 4
		}
		modifier = {
			factor = 2
			num_of_unions = 2
		}
	}
}