# Turkish Missions
# Shown in order of conquest

#CONQUERED BY 1359 (2800 importance, 1 province needed)

turkish_homelands = {

	type = country

	category = MIL
	
	ai_mission = yes
	
	target_provinces = {
		OR = {
			area = manisa_area
			area = hudavendigar_area
			}
		NOT = { owned_by = ROOT }
		NOT = { owner = { is_subject_of = ROOT } }
		is_empty = no
		}
	allow = {
		OR = { tag = TUR tag = OTT }
		singleplayer_or_ai_country_trigger = yes
		is_subject = no
		is_at_war = no
		total_development = 100
		num_of_owned_provinces_with = {
			OR = { 
				#This region
				area = manisa_area
				area = hudavendigar_area
				#Border provinces
				any_neighbor_province = { area = manisa_area }
				any_neighbor_province = { area = hudavendigar_area }
				}
			value = 1
		}
		OR = {
			NOT = { manisa_area = { type = all country_or_vassal_holds = ROOT } }
			NOT = { hudavendigar_area = { type = all country_or_vassal_holds = ROOT } }
			}
		}
	abort = {
		is_subject = yes
	}
	success = {
		all_target_province = {
			OR = { 
				owned_by = ROOT
				owner = { is_subject_of = ROOT }
				}
			}
	}
	chance = {
		factor = 2800 #Highest factor
		modifier = {
			total_development = 300
			factor = 1.4
			}
		modifier = {
			total_development = 900
			factor = 1.4
			}
		modifier = {
			army_tradition = 75
			factor = 1.4
			}
		modifier = {
			army_tradition = 50
			factor = 1.4
			}
		modifier = {
			army_size_percentage = 1
			factor = 1.4
			}
		modifier = {
			army_size_percentage = 0.75
			factor = 1.4
			}
		modifier = {
			factor = 1.4
			mil = 4
		}
		modifier = {
			factor = 1.4
			mil = 6
		}
	}
	immediate = {
		every_target_province = {
			add_permanent_claim = ROOT
		}
	}
	abort_effect = {
		add_country_modifier = { name = decreased_morale duration = 1000 }
		every_target_province = {
			remove_claim = ROOT
		}
	}
	effect = {
		FROM = {
			add_army_tradition = 5
			add_country_modifier = {
				name = "military_victory"
				duration = 5000
			}
		}
		every_target_province = {
			if = {
				limit = { is_core = ROOT }
				add_local_autonomy = -10
				}
			if = {
			limit = { NOT = { is_core = ROOT } }
			add_province_modifier = {
				name = "gaining_control"
				duration = -1
				}
			}
		}
	}
}

#CONQUERED BY 1389 (2400 importance, 2 provinces needed)

turkish_rumelia = {

	type = country

	category = MIL
	
	ai_mission = yes

	target_provinces = {
		area = thrace_area
		NOT = { owned_by = ROOT }
		NOT = { owner = { is_subject_of = ROOT } }
		NOT = { province_id = 1402 } #Constantinople
		is_empty = no
		}
	allow = {
		OR = { tag = TUR tag = OTT }
		singleplayer_or_ai_country_trigger = yes
		is_subject = no
		is_at_war = no
		total_development = 100
		num_of_owned_provinces_with = {
			OR = { 
				#This region
				area = thrace_area
				#Border provinces
				any_neighbor_province = { area = thrace_area }
				}
			value = 2
		}
		NOT = { thrace_area = { type = all OR = { province_id = 1402 owned_by = ROOT owner = { is_subject_of = ROOT } } } }
		}
	abort = {
		is_subject = yes
	}
	success = {
		all_target_province = {
			OR = { 
				owned_by = ROOT
				owner = { is_subject_of = ROOT }
				}
			}
	}
	chance = {
		factor = 2400 #High factor
		modifier = {
			total_development = 300
			factor = 1.4
			}
		modifier = {
			total_development = 900
			factor = 1.4
			}
		modifier = {
			army_tradition = 75
			factor = 1.4
			}
		modifier = {
			army_tradition = 50
			factor = 1.4
			}
		modifier = {
			army_size_percentage = 1
			factor = 1.4
			}
		modifier = {
			army_size_percentage = 0.75
			factor = 1.4
			}
		modifier = {
			factor = 1.4
			mil = 4
		}
		modifier = {
			factor = 1.4
			mil = 6
		}
	}
	immediate = {
		every_target_province = {
			add_permanent_claim = ROOT
		}
	}
	abort_effect = {
		add_country_modifier = { name = decreased_morale duration = 1000 }
		every_target_province = {
			remove_claim = ROOT
		}
	}
	effect = {
		FROM = {
			add_army_tradition = 5
			add_country_modifier = {
				name = "military_victory"
				duration = 5000
			}
		}
		every_target_province = {
			if = {
				limit = { is_core = ROOT }
				add_local_autonomy = -10
				}
			if = {
			limit = { NOT = { is_core = ROOT } }
			add_province_modifier = {
				name = "gaining_control"
				duration = -1
				}
			}
		}
	}
}

turkish_bulgaria = {

	type = country

	category = MIL
	
	ai_mission = yes

	target_provinces = {
		OR = {
			area = vidin_area
			area = dobrogea_area
			area = bulgaria_area
			}
		NOT = { owned_by = ROOT }
		NOT = { owner = { is_subject_of = ROOT } }
		is_empty = no
		}
	allow = {
		OR = { tag = TUR tag = OTT }
		singleplayer_or_ai_country_trigger = yes
		is_subject = no
		is_at_war = no
		total_development = 100
		num_of_owned_provinces_with = {
			OR = { 
				#This region
				area = vidin_area
				area = dobrogea_area
				area = bulgaria_area
				#Border provinces
				any_neighbor_province = { area = vidin_area }
				any_neighbor_province = { area = dobrogea_area }
				any_neighbor_province = { area = bulgaria_area }
				}
			value = 2
		}
		OR = {
			NOT = { bulgaria_area = { type = all country_or_vassal_holds = ROOT } }
			NOT = { vidin_area = { type = all country_or_vassal_holds = ROOT } }
			NOT = { dobrogea_area = { type = all country_or_vassal_holds = ROOT } }
			}
		}
	abort = {
		is_subject = yes
	}
	success = {
		all_target_province = {
			OR = { 
				owned_by = ROOT
				owner = { is_subject_of = ROOT }
				}
			}
	}
	chance = {
		factor = 2400 #High factor
		modifier = {
			total_development = 300
			factor = 1.4
			}
		modifier = {
			total_development = 900
			factor = 1.4
			}
		modifier = {
			army_tradition = 75
			factor = 1.4
			}
		modifier = {
			army_tradition = 50
			factor = 1.4
			}
		modifier = {
			army_size_percentage = 1
			factor = 1.4
			}
		modifier = {
			army_size_percentage = 0.75
			factor = 1.4
			}
		modifier = {
			factor = 1.4
			mil = 4
		}
		modifier = {
			factor = 1.4
			mil = 6
		}
	}
	immediate = {
		every_target_province = {
			add_permanent_claim = ROOT
		}
	}
	abort_effect = {
		add_country_modifier = { name = decreased_morale duration = 1000 }
		every_target_province = {
			remove_claim = ROOT
		}
	}
	effect = {
		FROM = {
			add_army_tradition = 5
			add_country_modifier = {
				name = "military_victory"
				duration = 5000
			}
		}
		every_target_province = {
			if = {
				limit = { is_core = ROOT }
				add_local_autonomy = -10
				}
			if = {
			limit = { NOT = { is_core = ROOT } }
			add_province_modifier = {
				name = "gaining_control"
				duration = -1
				}
			}
		}
	}
}

#CONQUERED BY 1451
turkish_greece = {

	type = country

	category = MIL
	
	ai_mission = yes

	target_provinces = {
		OR = {
			area = morea_area
			area = northern_greece_area
			area = macedonia_area
			}
		NOT = { owned_by = ROOT }
		NOT = { owner = { is_subject_of = ROOT } }
		is_empty = no
		}
	allow = {
		OR = { tag = TUR tag = OTT }
		singleplayer_or_ai_country_trigger = yes
		is_subject = no
		is_at_war = no
		total_development = 100
		num_of_owned_provinces_with = {
			OR = { 
				#This region
				area = morea_area
				area = northern_greece_area
				area = macedonia_area
				#Border provinces
				any_neighbor_province = { area = morea_area }
				any_neighbor_province = { area = northern_greece_area }
				any_neighbor_province = { area = macedonia_area }
				}
			value = 3
		}
		OR = {
			NOT = { morea_area = { type = all country_or_vassal_holds = ROOT } }
			NOT = { vidin_area = { type = all country_or_vassal_holds = ROOT } }
			NOT = { northern_greece_area = { type = all country_or_vassal_holds = ROOT } }
			}
		}
	abort = {
		is_subject = yes
	}
	success = {
		all_target_province = {
			OR = { 
				owned_by = ROOT
				owner = { is_subject_of = ROOT }
				}
			}
	}
	chance = {
		factor = 2000 #High factor
		modifier = {
			total_development = 300
			factor = 1.4
			}
		modifier = {
			total_development = 900
			factor = 1.4
			}
		modifier = {
			army_tradition = 75
			factor = 1.4
			}
		modifier = {
			army_tradition = 50
			factor = 1.4
			}
		modifier = {
			army_size_percentage = 1
			factor = 1.4
			}
		modifier = {
			army_size_percentage = 0.75
			factor = 1.4
			}
		modifier = {
			factor = 1.4
			mil = 4
		}
		modifier = {
			factor = 1.4
			mil = 6
		}
	}
	immediate = {
		every_target_province = {
			add_permanent_claim = ROOT
		}
	}
	abort_effect = {
		add_country_modifier = { name = decreased_morale duration = 1000 }
		every_target_province = {
			remove_claim = ROOT
		}
	}
	effect = {
		FROM = {
			add_army_tradition = 5
			add_country_modifier = {
				name = "military_victory"
				duration = 5000
			}
		}
		every_target_province = {
			if = {
				limit = { is_core = ROOT }
				add_local_autonomy = -10
				}
			if = {
			limit = { NOT = { is_core = ROOT } }
			add_province_modifier = {
				name = "gaining_control"
				duration = -1
				}
			}
		}
	}
}

turkish_northern_anatolia = {

	type = country

	category = MIL
	
	ai_mission = yes

	target_provinces = {
		OR = {
			area = rum_area
			area = kastamonu_area
			}
		NOT = { owned_by = ROOT }
		NOT = { owner = { is_subject_of = ROOT } }
		is_empty = no
		}
	allow = {
		OR = { tag = TUR tag = OTT }
		singleplayer_or_ai_country_trigger = yes
		is_subject = no
		is_at_war = no
		total_development = 100
		num_of_owned_provinces_with = {
			OR = { 
				#This region
				area = rum_area
				area = kastamonu_area
				#Border provinces
				any_neighbor_province = { area = rum_area }
				any_neighbor_province = { area = kastamonu_area }
				}
			value = 3
		}
		OR = {
			NOT = { rum_area = { type = all country_or_vassal_holds = ROOT } }
			NOT = { kastamonu_area = { type = all country_or_vassal_holds = ROOT } }
			}
		}
	abort = {
		is_subject = yes
	}
	success = {
		all_target_province = {
			OR = { 
				owned_by = ROOT
				owner = { is_subject_of = ROOT }
				}
			}
	}
	chance = {
		factor = 2000 #High factor
		modifier = {
			total_development = 300
			factor = 1.4
			}
		modifier = {
			total_development = 900
			factor = 1.4
			}
		modifier = {
			army_tradition = 75
			factor = 1.4
			}
		modifier = {
			army_tradition = 50
			factor = 1.4
			}
		modifier = {
			army_size_percentage = 1
			factor = 1.4
			}
		modifier = {
			army_size_percentage = 0.75
			factor = 1.4
			}
		modifier = {
			factor = 1.4
			mil = 4
		}
		modifier = {
			factor = 1.4
			mil = 6
		}
	}
	immediate = {
		every_target_province = {
			add_permanent_claim = ROOT
		}
	}
	abort_effect = {
		add_country_modifier = { name = decreased_morale duration = 1000 }
		every_target_province = {
			remove_claim = ROOT
		}
	}
	effect = {
		FROM = {
			add_army_tradition = 5
			add_country_modifier = {
				name = "military_victory"
				duration = 5000
			}
		}
		every_target_province = {
			if = {
				limit = { is_core = ROOT }
				add_local_autonomy = -10
				}
			if = {
			limit = { NOT = { is_core = ROOT } }
			add_province_modifier = {
				name = "gaining_control"
				duration = -1
				}
			}
		}
	}
}
turkish_coastal_anatolia = {

	type = country

	category = MIL
	
	ai_mission = yes

	target_provinces = {
		OR = {
			area = aydin_area
			area = teke_area
			area = kutahya_area
			}
		NOT = { owned_by = ROOT }
		NOT = { owner = { is_subject_of = ROOT } }
		is_empty = no
		}
	allow = {
		OR = { tag = TUR tag = OTT }
		singleplayer_or_ai_country_trigger = yes
		is_subject = no
		is_at_war = no
		total_development = 100
		num_of_owned_provinces_with = {
			OR = { 
				#This region
				area = aydin_area
				area = teke_area
				area = kutahya_area
				#Border provinces
				any_neighbor_province = { area = aydin_area }
				any_neighbor_province = { area = teke_area }
				any_neighbor_province = { area = kutahya_area }
				}
			value = 3
		}
		OR = {
			NOT = { aydin_area = { type = all country_or_vassal_holds = ROOT } }
			NOT = { teke_area = { type = all country_or_vassal_holds = ROOT } }
			NOT = { kutahya_area = { type = all country_or_vassal_holds = ROOT } }
			}
		}
	abort = {
		is_subject = yes
	}
	success = {
		all_target_province = {
			OR = { 
				owned_by = ROOT
				owner = { is_subject_of = ROOT }
				}
			}
	}
	chance = {
		factor = 2000 #High factor
		modifier = {
			total_development = 300
			factor = 1.4
			}
		modifier = {
			total_development = 900
			factor = 1.4
			}
		modifier = {
			army_tradition = 75
			factor = 1.4
			}
		modifier = {
			army_tradition = 50
			factor = 1.4
			}
		modifier = {
			army_size_percentage = 1
			factor = 1.4
			}
		modifier = {
			army_size_percentage = 0.75
			factor = 1.4
			}
		modifier = {
			factor = 1.4
			mil = 4
		}
		modifier = {
			factor = 1.4
			mil = 6
		}
	}
	immediate = {
		every_target_province = {
			add_permanent_claim = ROOT
		}
	}
	abort_effect = {
		add_country_modifier = { name = decreased_morale duration = 1000 }
		every_target_province = {
			remove_claim = ROOT
		}
	}
	effect = {
		FROM = {
			add_army_tradition = 5
			add_country_modifier = {
				name = "military_victory"
				duration = 5000
			}
		}
		every_target_province = {
			if = {
				limit = { is_core = ROOT }
				add_local_autonomy = -10
				}
			if = {
			limit = { NOT = { is_core = ROOT } }
			add_province_modifier = {
				name = "gaining_control"
				duration = -1
				}
			}
		}
	}
}
turkish_aegean = {

	type = country

	category = DIP
	
	ai_mission = yes

	target_provinces = {
		OR = {
			area = western_aegean_area
			area = eastern_aegean_area
			}
		NOT = { owned_by = ROOT }
		NOT = { owner = { is_subject_of = ROOT } }
		is_empty = no
		}
	allow = {
		OR = { tag = TUR tag = OTT }
		singleplayer_or_ai_country_trigger = yes
		is_subject = no
		is_at_war = no
		total_development = 100
		num_of_owned_provinces_with = {
			OR = { 
				#This region
				area = western_aegean_area
				area = eastern_aegean_area
				#Border provinces
				any_neighbor_province = { area = western_aegean_area }
				any_neighbor_province = { area = eastern_aegean_area }
				}
			value = 3
		}
		OR = {
			NOT = { western_aegean_area = { type = all country_or_vassal_holds = ROOT } }
			NOT = { eastern_aegean_area = { type = all country_or_vassal_holds = ROOT } }
			}
		}
	abort = {
		is_subject = yes
	}
	success = {
		all_target_province = {
			OR = { 
				owned_by = ROOT
				owner = { is_subject_of = ROOT }
				}
			}
	}
	chance = {
		factor = 2000 #High factor
		modifier = {
			total_development = 300
			factor = 1.4
			}
		modifier = {
			total_development = 900
			factor = 1.4
			}
		modifier = {
			navy_tradition = 75
			factor = 1.4
			}
		modifier = {
			navy_tradition = 50
			factor = 1.4
			}
		modifier = {
			navy_size_percentage = 1
			factor = 1.4
			}
		modifier = {
			navy_size_percentage = 0.75
			factor = 1.4
			}
		modifier = {
			factor = 1.4
			dip = 4
		}
		modifier = {
			factor = 1.4
			dip = 6
		}
	}
	immediate = {
		every_target_province = {
			add_permanent_claim = ROOT
		}
	}
	abort_effect = {
		add_country_modifier = { name = decreased_morale duration = 1000 }
		every_target_province = {
			remove_claim = ROOT
		}
	}
	effect = {
		FROM = {
			add_navy_tradition = 5
			add_country_modifier = {
				name = "expansion_of_the_shipbuilding_industry"
				duration = 3650
			}
		}
		every_target_province = {
			if = {
				limit = { is_core = ROOT }
				add_local_autonomy = -10
				}
			if = {
			limit = { NOT = { is_core = ROOT } }
			add_province_modifier = {
				name = "gaining_control"
				duration = -1
				}
			}
		}
	}
}

#CONQUERED BY 1481 (1600 importance, 4 provinces)

turkish_istanbul = { #The City of Men's Desires
	
	type = country

	category = MIL
	
	ai_mission = yes

	target_provinces = {
		province_id = 1402
		NOT = { owned_by = ROOT }
		NOT = { owner = { is_subject_of = ROOT } }
		is_empty = no
		}
	allow = {
		OR = { tag = TUR tag = OTT }
		is_subject = no
		is_at_war = no
		total_development = 100
		num_of_owned_provinces_with = {
			OR = { 
				#This region
				area = thrace_area
				#Border provinces
				any_neighbor_province = { area = thrace_area }
				}
			value = 4
		}
		1402 = { NOT = { owned_by = ROOT } NOT = { owner = { is_subject_of = ROOT } } }
		}
	abort = {
		is_subject = yes
	}
	success = {
		all_target_province = {
			OR = { 
				owned_by = ROOT
				owner = { is_subject_of = ROOT }
				}
			}
	}
	chance = {
		factor = 2400 #Special high factor
		modifier = {
			total_development = 300
			factor = 1.4
			}
		modifier = {
			total_development = 900
			factor = 1.4
			}
		modifier = {
			army_tradition = 75
			factor = 1.4
			}
		modifier = {
			army_tradition = 50
			factor = 1.4
			}
		modifier = {
			army_size_percentage = 1
			factor = 1.4
			}
		modifier = {
			army_size_percentage = 0.75
			factor = 1.4
			}
		modifier = {
			factor = 1.4
			mil = 4
		}
		modifier = {
			factor = 1.4
			mil = 6
		}
	}
	immediate = {
		every_target_province = {
			add_permanent_claim = ROOT
		}
	}
	abort_effect = {
		add_country_modifier = { name = decreased_morale duration = 1000 }
		every_target_province = {
			remove_claim = ROOT
		}
	}
	effect = {
		FROM = {
			add_prestige = 5
			add_country_modifier = {
				name = "defeated_byzantine_empire"
				duration = 3650
			}
		}
		every_target_province = {
			if = {
				limit = { is_core = ROOT }
				add_local_autonomy = -10
				}
			if = {
			limit = { NOT = { is_core = ROOT } }
			add_province_modifier = {
				name = "gaining_control"
				duration = -1
				}
			}
		}
	}
}

turkish_western_balkans = {

	type = country

	category = MIL
	
	ai_mission = yes

	target_provinces = {
		OR = {
			area = albania_area
			area = serbia_area
			area = bosnia_area
			}
		NOT = { owned_by = ROOT }
		NOT = { owner = { is_subject_of = ROOT } }
		is_empty = no
		}
	allow = {
		OR = { tag = TUR tag = OTT }
		singleplayer_or_ai_country_trigger = yes
		is_subject = no
		is_at_war = no
		total_development = 100
		num_of_owned_provinces_with = {
			OR = { 
				#This region
				area = albania_area
				area = serbia_area
				area = bosnia_area
				#Border provinces
				any_neighbor_province = { area = albania_area }
				any_neighbor_province = { area = serbia_area }
				any_neighbor_province = { area = bosnia_area }
				}
			value = 4
		}
		OR = {
			NOT = { albania_area = { type = all country_or_vassal_holds = ROOT } }
			NOT = { serbia_area = { type = all country_or_vassal_holds = ROOT } }
			NOT = { bosnia_area = { type = all country_or_vassal_holds = ROOT } }
			}
		}
	abort = {
		is_subject = yes
	}
	success = {
		all_target_province = {
			OR = { 
				owned_by = ROOT
				owner = { is_subject_of = ROOT }
				}
			}
	}
	chance = {
		factor = 1600 #Moderate factor
		modifier = {
			total_development = 300
			factor = 1.4
			}
		modifier = {
			total_development = 900
			factor = 1.4
			}
		modifier = {
			army_tradition = 75
			factor = 1.4
			}
		modifier = {
			army_tradition = 50
			factor = 1.4
			}
		modifier = {
			army_size_percentage = 1
			factor = 1.4
			}
		modifier = {
			army_size_percentage = 0.75
			factor = 1.4
			}
		modifier = {
			factor = 1.4
			mil = 4
		}
		modifier = {
			factor = 1.4
			mil = 6
		}
	}
	immediate = {
		every_target_province = {
			add_permanent_claim = ROOT
		}
	}
	abort_effect = {
		add_country_modifier = { name = decreased_morale duration = 1000 }
		every_target_province = {
			remove_claim = ROOT
		}
	}
	effect = {
		FROM = {
			add_army_tradition = 5
			add_country_modifier = {
				name = "military_victory"
				duration = 5000
			}
		}
		every_target_province = {
			if = {
				limit = { is_core = ROOT }
				add_local_autonomy = -10
				}
			if = {
			limit = { NOT = { is_core = ROOT } }
			add_province_modifier = {
				name = "gaining_control"
				duration = -1
				}
			}
		}
	}
}

turkish_eastern_anatolia = {

	type = country

	category = MIL
	
	ai_mission = yes

	target_provinces = {
		OR = {
			area = erzurum_area
			area = karaman_area
			area = dulkadir_area
			}
		NOT = { owned_by = ROOT }
		NOT = { owner = { is_subject_of = ROOT } }
		is_empty = no
		}
	allow = {
		OR = { tag = TUR tag = OTT }
		singleplayer_or_ai_country_trigger = yes
		is_subject = no
		is_at_war = no
		total_development = 100
		num_of_owned_provinces_with = {
			OR = { 
				#This region
				area = erzurum_area
				area = karaman_area
				area = dulkadir_area
				#Border provinces
				any_neighbor_province = { area = erzurum_area }
				any_neighbor_province = { area = karaman_area }
				any_neighbor_province = { area = dulkadir_area }
				}
			value = 4
		}
		OR = {
			NOT = { erzurum_area = { type = all country_or_vassal_holds = ROOT } }
			NOT = { karaman_area = { type = all country_or_vassal_holds = ROOT } }
			NOT = { dulkadir_area = { type = all country_or_vassal_holds = ROOT } }
			}
		}
	abort = {
		is_subject = yes
	}
	success = {
		all_target_province = {
			OR = { 
				owned_by = ROOT
				owner = { is_subject_of = ROOT }
				}
			}
	}
	chance = {
		factor = 1600 #Moderate factor
		modifier = {
			total_development = 300
			factor = 1.4
			}
		modifier = {
			total_development = 900
			factor = 1.4
			}
		modifier = {
			army_tradition = 75
			factor = 1.4
			}
		modifier = {
			army_tradition = 50
			factor = 1.4
			}
		modifier = {
			army_size_percentage = 1
			factor = 1.4
			}
		modifier = {
			army_size_percentage = 0.75
			factor = 1.4
			}
		modifier = {
			factor = 1.4
			mil = 4
		}
		modifier = {
			factor = 1.4
			mil = 6
		}
	}
	immediate = {
		every_target_province = {
			add_permanent_claim = ROOT
		}
	}
	abort_effect = {
		add_country_modifier = { name = decreased_morale duration = 1000 }
		every_target_province = {
			remove_claim = ROOT
		}
	}
	effect = {
		FROM = {
			add_army_tradition = 5
			add_country_modifier = {
				name = "military_victory"
				duration = 5000
			}
		}
		every_target_province = {
			if = {
				limit = { is_core = ROOT }
				add_local_autonomy = -10
				}
			if = {
			limit = { NOT = { is_core = ROOT } }
			add_province_modifier = {
				name = "gaining_control"
				duration = -1
				}
			}
		}
	}
}
turkish_crimea = {

	type = country

	category = DIP
	
	ai_mission = yes

	target_provinces = {
		area = crimea_area
		NOT = { owned_by = ROOT }
		NOT = { owner = { is_subject_of = ROOT } }
		is_empty = no
		}
	allow = {
		OR = { tag = TUR tag = OTT }
		singleplayer_or_ai_country_trigger = yes
		is_subject = no
		is_at_war = no
		total_development = 100
		num_of_owned_provinces_with = {
			OR = { 
				#This region
				area = crimea_area
				#Border provinces
				any_neighbor_province = { area = crimea_area }
				#Nearby ports
				AND = {
					OR = {
						area = thrace_area
						area = kastamonu_area
						area = rum_area
						}
					has_port = yes
					}
				}
			value = 4
		}
		NOT = { crimea_area = { type = all country_or_vassal_holds = ROOT } }
		}
	abort = {
		is_subject = yes
	}
	success = {
		all_target_province = {
			OR = { 
				owned_by = ROOT
				owner = { is_subject_of = ROOT }
				}
			}
	}
	chance = {
		factor = 1600 #Moderate factor
		modifier = {
			total_development = 300
			factor = 1.4
			}
		modifier = {
			total_development = 900
			factor = 1.4
			}
		modifier = {
			navy_tradition = 75
			factor = 1.4
			}
		modifier = {
			navy_tradition = 50
			factor = 1.4
			}
		modifier = {
			navy_size_percentage = 1
			factor = 1.4
			}
		modifier = {
			navy_size_percentage = 0.75
			factor = 1.4
			}
		modifier = {
			factor = 1.4
			dip = 4
		}
		modifier = {
			factor = 1.4
			dip = 6
		}
	}
	immediate = {
		every_target_province = {
			add_permanent_claim = ROOT
		}
	}
	abort_effect = {
		add_country_modifier = { name = decreased_morale duration = 1000 }
		every_target_province = {
			remove_claim = ROOT
		}
	}
	effect = {
		FROM = {
			add_navy_tradition = 5
			add_country_modifier = {
				name = "expansion_of_the_shipbuilding_industry"
				duration = 3650
			}
		}
		every_target_province = {
			if = {
				limit = { is_core = ROOT }
				add_local_autonomy = -10
				}
			if = {
			limit = { NOT = { is_core = ROOT } }
			add_province_modifier = {
				name = "gaining_control"
				duration = -1
				}
			}
		}
	}
}

#CONQUERED BY 1520 (1200/5)

turkish_southeast_anatolia = {

	type = country

	category = MIL
	
	ai_mission = yes

	target_provinces = {
		OR = {
			area = cilicia_area
			area = north_kurdistan_area
			area = aleppo_area
			}
		NOT = { owned_by = ROOT }
		NOT = { owner = { is_subject_of = ROOT } }
		is_empty = no
		}
	allow = {
		OR = { tag = TUR tag = OTT }
		singleplayer_or_ai_country_trigger = yes
		is_subject = no
		is_at_war = no
		total_development = 100
		num_of_owned_provinces_with = {
			OR = { 
				#This region
				area = cilicia_area
				area = north_kurdistan_area
				area = aleppo_area
				#Border provinces
				any_neighbor_province = { area = cilicia_area }
				any_neighbor_province = { area = north_kurdistan_area }
				any_neighbor_province = { area = aleppo_area }
				}
			value = 5
		}
		OR = {
			NOT = { cilicia_area = { type = all country_or_vassal_holds = ROOT } }
			NOT = { north_kurdistan_area = { type = all country_or_vassal_holds = ROOT } }
			NOT = { aleppo_area = { type = all country_or_vassal_holds = ROOT } }
			}
		}
	abort = {
		is_subject = yes
	}
	success = {
		all_target_province = {
			OR = { 
				owned_by = ROOT
				owner = { is_subject_of = ROOT }
				}
			}
	}
	chance = {
		factor = 1200 #Moderate factor
		modifier = {
			total_development = 300
			factor = 1.4
			}
		modifier = {
			total_development = 900
			factor = 1.4
			}
		modifier = {
			army_tradition = 75
			factor = 1.4
			}
		modifier = {
			army_tradition = 50
			factor = 1.4
			}
		modifier = {
			army_size_percentage = 1
			factor = 1.4
			}
		modifier = {
			army_size_percentage = 0.75
			factor = 1.4
			}
		modifier = {
			factor = 1.4
			mil = 4
		}
		modifier = {
			factor = 1.4
			mil = 6
		}
	}
	immediate = {
		every_target_province = {
			add_permanent_claim = ROOT
		}
	}
	abort_effect = {
		add_country_modifier = { name = decreased_morale duration = 1000 }
		every_target_province = {
			remove_claim = ROOT
		}
	}
	effect = {
		FROM = {
			add_army_tradition = 5
			add_country_modifier = {
				name = "military_victory"
				duration = 5000
			}
		}
		every_target_province = {
			if = {
				limit = { is_core = ROOT }
				add_local_autonomy = -10
				}
			if = {
			limit = { NOT = { is_core = ROOT } }
			add_province_modifier = {
				name = "gaining_control"
				duration = -1
				}
			}
		}
	}
}

turkish_levant = {

	type = country

	category = MIL
	
	ai_mission = yes

	target_provinces = {
		OR = {
			area = syria_area
			area = palestine_area
			area = rakka_area
			}
		NOT = { owned_by = ROOT }
		NOT = { owner = { is_subject_of = ROOT } }
		is_empty = no
		}
	allow = {
		OR = { tag = TUR tag = OTT }
		singleplayer_or_ai_country_trigger = yes
		is_subject = no
		is_at_war = no
		total_development = 100
		num_of_owned_provinces_with = {
			OR = { 
				#This region
				area = syria_area
				area = palestine_area
				area = rakka_area
				#Border provinces
				any_neighbor_province = { area = syria_area }
				any_neighbor_province = { area = palestine_area }
				any_neighbor_province = { area = rakka_area }
				}
			value = 5
		}
		OR = {
			NOT = { syria_area = { type = all country_or_vassal_holds = ROOT } }
			NOT = { palestine_area = { type = all country_or_vassal_holds = ROOT } }
			NOT = { rakka_area = { type = all country_or_vassal_holds = ROOT } }
			}
		}
	abort = {
		is_subject = yes
	}
	success = {
		all_target_province = {
			OR = { 
				owned_by = ROOT
				owner = { is_subject_of = ROOT }
				}
			}
	}
	chance = {
		factor = 1200 #Moderate factor
		modifier = {
			total_development = 300
			factor = 1.4
			}
		modifier = {
			total_development = 900
			factor = 1.4
			}
		modifier = {
			army_tradition = 75
			factor = 1.4
			}
		modifier = {
			army_tradition = 50
			factor = 1.4
			}
		modifier = {
			army_size_percentage = 1
			factor = 1.4
			}
		modifier = {
			army_size_percentage = 0.75
			factor = 1.4
			}
		modifier = {
			factor = 1.4
			mil = 4
		}
		modifier = {
			factor = 1.4
			mil = 6
		}
	}
	immediate = {
		every_target_province = {
			add_permanent_claim = ROOT
		}
	}
	abort_effect = {
		add_country_modifier = { name = decreased_morale duration = 1000 }
		every_target_province = {
			remove_claim = ROOT
		}
	}
	effect = {
		FROM = {
			add_army_tradition = 5
			add_country_modifier = {
				name = "military_victory"
				duration = 5000
			}
		}
		every_target_province = {
			if = {
				limit = { is_core = ROOT }
				add_local_autonomy = -10
				}
			if = {
			limit = { NOT = { is_core = ROOT } }
			add_province_modifier = {
				name = "gaining_control"
				duration = -1
				}
			}
		}
	}
}

turkish_egypt = {

	type = country

	category = MIL
	
	ai_mission = yes

	target_provinces = {
		region = egypt_region
		NOT = { owned_by = ROOT }
		NOT = { owner = { is_subject_of = ROOT } }
		is_empty = no
	}
	allow = {
		OR = { tag = TUR tag = OTT }
		singleplayer_or_ai_country_trigger = yes
		is_subject = no
		is_at_war = no
		total_development = 100
		num_of_owned_provinces_with = {
			OR = { 
				#This region
				region = egypt_region
				#Border provinces
				any_neighbor_province = { region = egypt_region }
				}
			value = 5
		}
		any_province = {
			region = egypt_region
			NOT = { owned_by = ROOT }
			NOT = { owner = { is_subject_of = ROOT } }
			is_empty = no
		}
	}
	abort = {
		is_subject = yes
	}
	success = {
		all_target_province = {
			OR = { 
				owned_by = ROOT
				owner = { is_subject_of = ROOT }
			}
		}
	}
	chance = {
		factor = 1200 #Moderate factor
		modifier = {
			total_development = 300
			factor = 1.4
			}
		modifier = {
			total_development = 900
			factor = 1.4
			}
		modifier = {
			army_tradition = 75
			factor = 1.4
			}
		modifier = {
			army_tradition = 50
			factor = 1.4
			}
		modifier = {
			army_size_percentage = 1
			factor = 1.4
			}
		modifier = {
			army_size_percentage = 0.75
			factor = 1.4
			}
		modifier = {
			factor = 1.4
			mil = 4
		}
		modifier = {
			factor = 1.4
			mil = 6
		}
	}
	immediate = {
		every_target_province = {
			add_permanent_claim = ROOT
		}
	}
	abort_effect = {
		add_country_modifier = { name = decreased_morale duration = 1000 }
		every_target_province = {
			remove_claim = ROOT
		}
	}
	effect = {
		FROM = {
			add_army_tradition = 5
			add_country_modifier = {
				name = "military_victory"
				duration = 5000
			}
		}
		every_target_province = {
			if = {
				limit = { is_core = ROOT }
				add_local_autonomy = -10
				}
			if = {
			limit = { NOT = { is_core = ROOT } }
			add_province_modifier = {
				name = "gaining_control"
				duration = -1
				}
			}
		}
	}
}

turkish_hejaz = {

	type = country

	category = MIL
	
	ai_mission = yes

	target_provinces = {
		area = hejaz_area
		NOT = { owned_by = ROOT }
		NOT = { owner = { is_subject_of = ROOT } }
		is_empty = no
		}
	allow = {
		OR = { tag = TUR tag = OTT }
		religion_group = muslim
		singleplayer_or_ai_country_trigger = yes
		is_subject = no
		is_at_war = no
		total_development = 100
		num_of_owned_provinces_with = {
			OR = { 
				#This region
				area = hejaz_area
				#Border provinces
				any_neighbor_province = { area = hejaz_area }
				}
			value = 5
		}
		NOT = { hejaz_area = { type = all country_or_vassal_holds = ROOT } }
		}
	abort = {
		is_subject = yes
	}
	success = {
		all_target_province = {
			OR = { 
				owned_by = ROOT
				owner = { is_subject_of = ROOT }
				}
			}
	}
	chance = {
		factor = 1200 #Moderate factor
		modifier = {
			total_development = 300
			factor = 1.4
			}
		modifier = {
			total_development = 900
			factor = 1.4
			}
		modifier = {
			army_tradition = 75
			factor = 1.4
			}
		modifier = {
			army_tradition = 50
			factor = 1.4
			}
		modifier = {
			army_size_percentage = 1
			factor = 1.4
			}
		modifier = {
			army_size_percentage = 0.75
			factor = 1.4
			}
		modifier = {
			factor = 1.4
			mil = 4
		}
		modifier = {
			factor = 1.4
			mil = 6
		}
	}
	immediate = {
		every_target_province = {
			add_permanent_claim = ROOT
		}
	}
	abort_effect = {
		add_country_modifier = { name = decreased_morale duration = 1000 }
		every_target_province = {
			remove_claim = ROOT
		}
	}
	effect = {
		FROM = {
			add_army_tradition = 5
			add_country_modifier = {
				name = "military_victory"
				duration = 5000
			}
		}
		every_target_province = {
			if = {
				limit = { is_core = ROOT }
				add_local_autonomy = -10
				}
			if = {
			limit = { NOT = { is_core = ROOT } }
			add_province_modifier = {
				name = "gaining_control"
				duration = -1
				}
			}
		}
	}
}

turkish_algeria = {

	type = country

	category = DIP
	
	ai_mission = yes

	target_provinces = {
		OR = {
			area = algiers_area
			area = kabylia_area
			}
		NOT = { owned_by = ROOT }
		NOT = { owner = { is_subject_of = ROOT } }
		is_empty = no
		}
	allow = {
		OR = { tag = TUR tag = OTT }
		singleplayer_or_ai_country_trigger = yes
		is_subject = no
		is_at_war = no
		total_development = 100
		num_of_owned_provinces_with = {
			OR = { 
				#This region
				area = algiers_area
				area = kabylia_area
				#Border provinces
				any_neighbor_province = { area = algiers_area }
				any_neighbor_province = { area = kabylia_area }
				}
			value = 5
		}
		OR = {
			NOT = { algiers_area = { type = all country_or_vassal_holds = ROOT } }
			NOT = { kabylia_area = { type = all country_or_vassal_holds = ROOT } }
			}
		}
	abort = {
		is_subject = yes
	}
	success = {
		all_target_province = {
			OR = { 
				owned_by = ROOT
				owner = { is_subject_of = ROOT }
				}
			}
	}
	chance = {
		factor = 1200 #Moderate factor
		modifier = {
			total_development = 300
			factor = 1.4
			}
		modifier = {
			total_development = 900
			factor = 1.4
			}
		modifier = {
			navy_tradition = 75
			factor = 1.4
			}
		modifier = {
			navy_tradition = 50
			factor = 1.4
			}
		modifier = {
			navy_size_percentage = 1
			factor = 1.4
			}
		modifier = {
			navy_size_percentage = 0.75
			factor = 1.4
			}
		modifier = {
			factor = 1.4
			dip = 4
		}
		modifier = {
			factor = 1.4
			dip = 6
		}
	}
	immediate = {
		every_target_province = {
			add_permanent_claim = ROOT
		}
	}
	abort_effect = {
		add_country_modifier = { name = decreased_morale duration = 1000 }
		every_target_province = {
			remove_claim = ROOT
		}
	}
	effect = {
		FROM = {
			add_navy_tradition = 5
			add_country_modifier = {
				name = "expansion_of_the_shipbuilding_industry"
				duration = 3650
			}
		}
		every_target_province = {
			if = {
				limit = { is_core = ROOT }
				add_local_autonomy = -10
				}
			if = {
			limit = { NOT = { is_core = ROOT } }
			add_province_modifier = {
				name = "gaining_control"
				duration = -1
				}
			}
		}
	}
}

#CONQUERED BY 1566 (800/6)

turkish_tripoli = {

	type = country

	category = MIL
	
	ai_mission = yes

	target_provinces = {
		area = tripolitania_area
		NOT = { owned_by = ROOT }
		NOT = { owner = { is_subject_of = ROOT } }
		is_empty = no
		}
	allow = {
		OR = { tag = TUR tag = OTT }
		religion_group = muslim
		singleplayer_or_ai_country_trigger = yes
		is_subject = no
		is_at_war = no
		total_development = 100
		num_of_owned_provinces_with = {
			OR = { 
				#This region
				area = tripolitania_area
				#Border provinces
				any_neighbor_province = { area = tripolitania_area }
				#Egyptian ports
				AND = { 
					region = egypt_region
					has_port = yes
					}
				}
			value = 6
		}
		NOT = { tripolitania_area = { type = all country_or_vassal_holds = ROOT } }
		}
	abort = {
		is_subject = yes
	}
	success = {
		all_target_province = {
			OR = { 
				owned_by = ROOT
				owner = { is_subject_of = ROOT }
				}
			}
	}
	chance = {
		factor = 800 #Low factor
		modifier = {
			total_development = 300
			factor = 1.4
			}
		modifier = {
			total_development = 900
			factor = 1.4
			}
		modifier = {
			army_tradition = 75
			factor = 1.4
			}
		modifier = {
			army_tradition = 50
			factor = 1.4
			}
		modifier = {
			army_size_percentage = 1
			factor = 1.4
			}
		modifier = {
			army_size_percentage = 0.75
			factor = 1.4
			}
		modifier = {
			factor = 1.4
			mil = 4
		}
		modifier = {
			factor = 1.4
			mil = 6
		}
	}
	immediate = {
		every_target_province = {
			add_permanent_claim = ROOT
		}
	}
	abort_effect = {
		add_country_modifier = { name = decreased_morale duration = 1000 }
		every_target_province = {
			remove_claim = ROOT
		}
	}
	effect = {
		FROM = {
			add_army_tradition = 5
			add_country_modifier = {
				name = "military_victory"
				duration = 5000
			}
		}
		every_target_province = {
			if = {
				limit = { is_core = ROOT }
				add_local_autonomy = -10
				}
			if = {
			limit = { NOT = { is_core = ROOT } }
			add_province_modifier = {
				name = "gaining_control"
				duration = -1
				}
			}
		}
	}
}

turkish_iraq = {

	type = country

	category = MIL
	
	ai_mission = yes

	target_provinces = {
		region = mashriq_region
		NOT = { area = palestine_area }
		NOT = { area = syria_area }
		NOT = { area = rakka_area }
		NOT = { owned_by = ROOT }
		NOT = { owner = { is_subject_of = ROOT } }
		is_empty = no
		}
	allow = {
		OR = { tag = TUR tag = OTT }
		religion_group = muslim
		singleplayer_or_ai_country_trigger = yes
		is_subject = no
		is_at_war = no
		total_development = 100
		num_of_owned_provinces_with = {
			OR = { 
				#This region
				region = mashriq_region
				}
			value = 6
		}
		NOT = { mashriq_region = { type = all OR = { area = palestine_area area = syria_area area = rakka_area owned_by = ROOT owner = { is_subject_of = ROOT } } } }
		}
	abort = {
		is_subject = yes
	}
	success = {
		all_target_province = {
			OR = { 
				owned_by = ROOT
				owner = { is_subject_of = ROOT }
				}
			}
	}
	chance = {
		factor = 800 #Low factor
		modifier = {
			total_development = 300
			factor = 1.4
			}
		modifier = {
			total_development = 900
			factor = 1.4
			}
		modifier = {
			army_tradition = 75
			factor = 1.4
			}
		modifier = {
			army_tradition = 50
			factor = 1.4
			}
		modifier = {
			army_size_percentage = 1
			factor = 1.4
			}
		modifier = {
			army_size_percentage = 0.75
			factor = 1.4
			}
		modifier = {
			factor = 1.4
			mil = 4
		}
		modifier = {
			factor = 1.4
			mil = 6
		}
	}
	immediate = {
		every_target_province = {
			add_permanent_claim = ROOT
		}
	}
	abort_effect = {
		add_country_modifier = { name = decreased_morale duration = 1000 }
		every_target_province = {
			remove_claim = ROOT
		}
	}
	effect = {
		FROM = {
			add_army_tradition = 5
			add_country_modifier = {
				name = "military_victory"
				duration = 5000
			}
		}
		every_target_province = {
			if = {
				limit = { is_core = ROOT }
				add_local_autonomy = -10
				}
			if = {
			limit = { NOT = { is_core = ROOT } }
			add_province_modifier = {
				name = "gaining_control"
				duration = -1
				}
			}
		}
	}
}

turkish_hungary = {

	type = country

	category = MIL
	
	ai_mission = yes

	target_provinces = {
		region = magyar_region
		NOT = { owned_by = ROOT }
		NOT = { owner = { is_subject_of = ROOT } }
		is_empty = no
		}
	allow = {
		OR = { tag = TUR tag = OTT }
		religion_group = muslim
		singleplayer_or_ai_country_trigger = yes
		is_subject = no
		is_at_war = no
		total_development = 100
		num_of_owned_provinces_with = {
			OR = { 
				#This region
				region = magyar_region
				#Border provinces
				any_neighbor_province = { region = magyar_region }
				}
			value = 6
		}
		NOT = { magyar_region = { type = all country_or_vassal_holds = ROOT } }
		}
	abort = {
		is_subject = yes
	}
	success = {
		all_target_province = {
			OR = { 
				owned_by = ROOT
				owner = { is_subject_of = ROOT }
				}
			}
	}
	chance = {
		factor = 800 #Low factor
		modifier = {
			total_development = 300
			factor = 1.4
			}
		modifier = {
			total_development = 900
			factor = 1.4
			}
		modifier = {
			army_tradition = 75
			factor = 1.4
			}
		modifier = {
			army_tradition = 50
			factor = 1.4
			}
		modifier = {
			army_size_percentage = 1
			factor = 1.4
			}
		modifier = {
			army_size_percentage = 0.75
			factor = 1.4
			}
		modifier = {
			factor = 1.4
			mil = 4
		}
		modifier = {
			factor = 1.4
			mil = 6
		}
	}
	immediate = {
		every_target_province = {
			add_claim = ROOT
		}
	}
	abort_effect = {
		add_country_modifier = { name = decreased_morale duration = 1000 }
		every_target_province = {
			remove_claim = ROOT
		}
	}
	effect = {
		FROM = {
			add_army_tradition = 5
			add_country_modifier = {
				name = "military_victory"
				duration = 5000
			}
		}
		every_target_province = {
			if = {
				limit = { is_core = ROOT }
				add_local_autonomy = -10
				}
			if = {
			limit = { NOT = { is_core = ROOT } }
			add_province_modifier = {
				name = "gaining_control"
				duration = -1
				}
			}
		}
	}
}
