country_decisions = {

	enough_with_april_fools = {
		potential = {
			ai = no
			has_global_flag = april_fools_2016
			}
		allow = {
			}
		effect = {
			clr_global_flag = april_fools_2016
			}
		ai_will_do = {
			factor = 0
			}
		}

}