country_decisions = {

	abrogate_tatar_treaty_gen = {
		potential = {
			tag = GEN
			ai = no
			has_country_flag = tatar_treaty
		}
		allow = {
			is_at_war = no
		}
		effect = {
			clr_country_flag = tatar_treaty
			add_prestige = 5
			every_owned_province = {
				limit = {
					OR = {
						province_id = 1298
						province_id = 3795
						area = crimea_area
					}
				}
				add_core = CRI
				add_unrest = 20
			}
			GOL = {
				clr_country_flag = tatar_treaty
			}
			WHI = {
				clr_country_flag = tatar_treaty
			}
			BLU = {
				clr_country_flag = tatar_treaty
			}
			if = {
				limit = {
					WHI = {
						is_neighbor_of = ROOT
					}
				}
				every_owned_province = {
					limit = {
						area = crimea_area
					}
					add_core = WHI
				}
			}
			if = {
				limit = {
					BLU = {
						is_neighbor_of = ROOT
					}
				}
				every_owned_province = {
					limit = {
						area = crimea_area
					}
					add_core = BLU
				}
			}
			if = {
				limit = {
					GOL = {
						is_neighbor_of = ROOT
					}
				}
				every_owned_province = {
					limit = {
						area = crimea_area
					}
					add_core = GOL
				}
			}
		}
		ai_will_do = {
			factor = 0
		}
	}

	abrogate_tatar_treaty_tatar = {
		potential = {
			OR = {
				tag = WHI
				tag = BLU
				tag = GOL
			}
			ai = no
			has_country_flag = tatar_treaty
		}
		allow = {
			is_at_war = no
		}
		effect = {
			clr_country_flag = tatar_treaty
			GOL = {
				clr_country_flag = tatar_treaty
			}
			WHI = {
				clr_country_flag = tatar_treaty
			}
			BLU = {
				clr_country_flag = tatar_treaty
			}
			GEN = {
				clr_country_flag = tatar_treaty
			}
			add_prestige = 5
			every_owned_province = {
				limit = {
					area = crimea_area
				}
				add_core = CRI
				add_unrest = 20
			}
			if = {
				limit = {
					GEN = {
						is_neighbor_of = ROOT
					}
				}
				every_owned_province = {
					limit = {
						area = crimea_area
					}
					add_core = GEN
				}
			}
		}
		ai_will_do = {
			factor = 0
		}
	}
}