country_decisions = {

	burgundy_artois_marriage = {
		potential = {
			tag = BUR
			is_female = no
			NOT = { has_country_modifier = expansion_trough_marriage }
			exists = ARS
			ARS = {
				is_female = yes
				government = monarchy
				is_at_war = no
				ai = yes
				OR = {
					is_subject = no
					is_subject_of = BUR
					AND = {
						is_subject = yes
						overlord = { ai = yes }
					}
				} 
			}
		}
		allow = {
			dip = 3
			is_at_war = no
		}
		effect = {
			add_ruler_modifier = { name = "expansion_trough_marriage" }
			ARS = {
				country_event = { id = flavor_bur.1051 days = 0 }
			}
			if = {
				limit = {
					ARS = { has_ruler = "Margarethe III" }
				}
				set_country_flag = margarethe_marriage
			}
		}
		ai_will_do = {
			factor = 1
		}
	}
	
	burgundy_flanders_marriage = {
		potential = {
			tag = BUR
			is_female = no
			NOT = { has_country_modifier = expansion_trough_marriage }
			exists = FLA
			FLA = {
				is_female = yes
				government = monarchy
				ai = yes
				OR = {
					is_subject = no
					is_subject_of = BUR
					AND = {
						is_subject = yes
						overlord = { ai = yes }
					}
				} 
			}
		}
		allow = {
			dip = 3
			is_at_war = no
		}
		effect = {
			add_ruler_modifier = { name = "expansion_trough_marriage" }
			FLA = {
				country_event = { id = flavor_bur.1051 days = 0 }
			}
		}
		ai_will_do = {
			factor = 1
		}
	}
	
	burgundy_hainaut_marriage = {
		potential = {
			tag = BUR
			is_female = no
			NOT = { has_country_modifier = expansion_trough_marriage }
			exists = HAI
			HAI = {
				is_female = yes
				government = monarchy
				ai = yes
				OR = {
					is_subject = no
					is_subject_of = BUR
					AND = {
						is_subject = yes
						overlord = { ai = yes }
					}
				} 
			}
		}
		allow = {
			dip = 3
			is_at_war = no
		}
		effect = {
			add_ruler_modifier = { name = "expansion_trough_marriage" }
			HAI = {
				country_event = { id = flavor_bur.1051 days = 1 }
			}
		}
		ai_will_do = {
			factor = 1
		}
	}
	
	burgundy_brabant_marriage = {
		potential = {
			tag = BUR
			is_female = no
			NOT = { has_country_modifier = expansion_trough_marriage }
			exists = BRB
			BRB = {
				is_female = yes
				government = monarchy
				ai = yes
				OR = {
					is_subject = no
					is_subject_of = BUR
					AND = {
						is_subject = yes
						overlord = { ai = yes }
					}
				} 
			}
		}
		allow = {
			dip = 3
			is_at_war = no
		}
		effect = {
			add_ruler_modifier = { name = "expansion_trough_marriage" }
			BRB = {
				country_event = { id = flavor_bur.1051 days = 1 }
			}
		}
		ai_will_do = {
			factor = 1
		}
	}
	
	burgundy_holland_marriage = {
		potential = {
			tag = BUR
			is_female = no
			NOT = { has_country_modifier = expansion_trough_marriage }
			exists = HOL
			HOL = {
				is_female = yes
				government = monarchy
				ai = yes
				OR = {
					is_subject = no
					is_subject_of = BUR
					AND = {
						is_subject = yes
						overlord = { ai = yes }
					}
				} 
			}
		}
		allow = {
			dip = 3
			is_at_war = no
		}
		effect = {
			add_ruler_modifier = { name = "expansion_trough_marriage" }
			HOL = {
				country_event = { id = flavor_bur.1051 days = 1 }
			}
		}
		ai_will_do = {
			factor = 1
		}
	}
	
	burgundy_utrecht_marriage = {
		potential = {
			tag = BUR
			is_female = no
			NOT = { has_country_modifier = expansion_trough_marriage }
			exists = UTR
			UTR = {
				is_female = yes
				government = monarchy
				ai = yes
				OR = {
					is_subject = no
					is_subject_of = BUR
					AND = {
						is_subject = yes
						overlord = { ai = yes }
					}
				} 
			}
		}
		allow = {
			dip = 3
			is_at_war = no
		}
		effect = {
			add_ruler_modifier = { name = "expansion_trough_marriage" }
			UTR = {
				country_event = { id = flavor_bur.1051 days = 1 }
			}
		}
		ai_will_do = {
			factor = 1
		}
	}
	
	burgundy_gelre_marriage = {
		potential = {
			tag = BUR
			is_female = no
			NOT = { has_country_modifier = expansion_trough_marriage }
			exists = GEL
			GEL = {
				is_female = yes
				government = monarchy
				ai = yes
				OR = {
					is_subject = no
					is_subject_of = BUR
					AND = {
						is_subject = yes
						overlord = { ai = yes }
					}
				} 
			}
		}
		allow = {
			dip = 3
			is_at_war = no
		}
		effect = {
			add_ruler_modifier = { name = "expansion_trough_marriage" }
			GEL = {
				country_event = { id = flavor_bur.1051 days = 1 }
			}
		}
		ai_will_do = {
			factor = 1
		}
	}
	
	burgundy_friesland_marriage = {
		potential = {
			tag = BUR
			is_female = no
			NOT = { has_country_modifier = expansion_trough_marriage }
			exists = FRI
			FRI = {
				is_female = yes
				government = monarchy
				ai = yes
				OR = {
					is_subject = no
					is_subject_of = BUR
					AND = {
						is_subject = yes
						overlord = { ai = yes }
					}
				} 
			}
		}
		allow = {
			dip = 3
			is_at_war = no
		}
		effect = {
			add_ruler_modifier = { name = "expansion_trough_marriage" }
			FRI = {
				country_event = { id = flavor_bur.1051 days = 1 }
			}
		}
		ai_will_do = {
			factor = 1
		}
	}
	
	burgundy_luxembourg_marriage = {
		potential = {
			tag = BUR
			is_female = no
			NOT = { has_country_modifier = expansion_trough_marriage }
			exists = LUX
			LUX = {
				is_female = yes
				government = monarchy
				ai = yes
				OR = {
					is_subject = no
					is_subject_of = BUR
					AND = {
						is_subject = yes
						overlord = { ai = yes }
					}
				} 
			}
		}
		allow = {
			dip = 3
			is_at_war = no
		}
		effect = {
			add_ruler_modifier = { name = "expansion_trough_marriage" }
			LUX = {
				country_event = { id = flavor_bur.1051 days = 1 }
			}
		}
		ai_will_do = {
			factor = 1
		}
	}
	
	pawn_the_county = {
		potential = {
			tag = NAM
			ai = yes
		}
		allow = {
			num_of_loans = 1
		}
		effect = {
			BUR = {
				country_event = { id = flavor_bur.1101 days = 1 }
			}
		}
		ai_will_do = {
			factor = 1
		}
	}

	support_the_cods = {
		potential = {
			tag = BUR
			NOT = { has_global_flag = had_flavor_hol_1002 }
			NOT = { has_ruler_modifier = burgundian_support }
			HOL = {
				has_country_modifier = cod_and_hooks
			}
		}
		allow = {
			dip = 3
			is_at_war = no
			mil_power = 250
		}
		effect = {
			add_ruler_modifier = {
				name = "burgundian_support"
				hidden = yes
			}
			HOL = {				
				country_event = {
					id = flavor_hol.1002
					days = 1
				}
			}
		}
	}

}
