#######################################
#########                   ###########
####				   			   ####
####       MEIOU and Taxes         ####
####				   			   ####
#########                   ###########
#######################################

#Table of Contents
	# 01_Central_America_Carribean
	# 01_North_America
	# 01_South_America
	# 02_Africa
	# 02_Oceania_Pacific
	# 02_Siberia
