# Country: Mrauk U
# file name: ARK - Arakan
# MEIOU-FB India 1337+ mod Aug 08
# 2009-dec-28 - FB - HT3 changes

government = eastern_monarchy government_rank = 3		#FB was eastern_monarchy_2
mercantilism = 0.0
technology_group = indian
religion = buddhism
primary_culture = arakanese
capital = 579	# Arakan
historical_neutral = BNG

1000.1.1 = {
	add_country_modifier = {
		name = "concubinage"
		duration = -1
	}
	set_variable = { which = "centralization_decentralization" value = 3 }
}

1349.1.1 = {
	monarch = {
		name = "Meng Di"
		dynasty = "Loung-Kyet"
		ADM = 6
		DIP = 5
		MIL = 6
	}
}

1385.1.1 = {
	monarch = {
		name = "Utstsanangay"
		dynasty = "Loung-Kyet"
		ADM = 1
		DIP = 1
		MIL = 1
	}
}
1387.1.1 = {
	monarch = {
		name = "Thiwarit"
		dynasty = "Loung-Kyet"
		ADM = 1
		DIP = 2
		MIL = 1
	}
}
1390.1.1 = {
	monarch = {
		name = "Thintse"
		dynasty = "Loung-Kyet"
		ADM = 2
		DIP = 3
		MIL = 2
	}
}

1397.1.1 = {
	monarch = {
		name = "Radzathu II"
		dynasty = "Launggyet"
		adm = 1
		dip = 1
		mil = 0
	}
	add_piety = -0.1
}

1397.1.1 = {
	heir = {
		name = "Thinggathu"
		monarch_name = "Thinggathu"
		dynasty = "Launggyet"
		birth_date = 1395.1.1
		death_Date = 1404.1.1
		claim = 95
		adm = 3
		dip = 2
		mil = 2
	}
}

1401.1.1 = {
	monarch = {
		name = "Thinkhathu"
		dynasty = "Launggyet"
		adm = 3
		dip = 2
		mil = 2
	}
}

1401.1.1 = {
	heir = {
		name = "Saw Mon"
		monarch_name = "Saw Mon III"
		dynasty = "Launggyet"
		birth_date = 1380.1.1
		death_Date = 1433.5.9
		claim = 95
		adm = 2
		dip = 2
		mil = 3
	}
}

1404.1.1 = {
	monarch = {
		name = "Saw Mon III"
		dynasty = "Launggyet"
		adm = 2
		dip = 2
		mil = 3
	}
}

1406.11.29 = {
	monarch = {
		name = "Anawrahta"
		dynasty = "Ava"
		adm = 1
		dip = 0
		mil = 0
	}
}

1407.11.1 = {
	monarch = {
		name = "Khayi"
		dynasty = "Hanthawaddy"
		adm = 0
		dip = 0
		mil = 0
	}
}

1409.9.1 = {
	monarch = {
		name = "Letya"
		dynasty = "Ava"
		adm = 0
		dip = 0
		mil = 0
	}
}

1412.1.1 = {
	monarch = {
		name = "Naranu"
		dynasty = "Launnggyet"
		adm = 0
		dip = 0
		mil = 0
	}
}

1429.4.18 = {
	monarch = {
		name = "Saw Mon III"
		dynasty = "Mrauk-U"
		adm = 2
		dip = 2
		mil = 3
	}
}

1429.4.18 = {
	heir = {
		name = "'Khayi"
		monarch_name = "'Khayi"
		dynasty = "Mrauk-U"
		birth_date = 1392.3.1
		death_Date = 1459.1.1
		claim = 95
		adm = 3
		dip = 3
		mil = 3
	}
}

1433.5.9 = {
	monarch = {
		name = "'Khayi"
		dynasty = "Mrauk-U"
		adm = 3
		dip = 3
		mil = 2
	}
}

1433.5.9 = {
	heir = {
		name = "Ba Saw Phyu"
		monarch_name = "Ba Saw Phyu"
		dynasty = "Mrauk-U"
		birth_date = 1430.3.1
		death_date = 1482.8.5
		claim = 95
		adm = 3
		dip = 2
		mil = 2
	}
}

1459.1.1 = {
	monarch = {
		name = "Ba Saw Phyu"
		dynasty = "Mrauk-U"
		adm = 3
		dip = 2
		mil = 2
	}
}

1459.1.1 = {
	heir = {
		name = "Dawlya"
		monarch_name = "Dawlya"
		dynasty = "Mrauk-U"
		birth_date = 1456.1.1
		death_Date = 1492.2.1
		claim = 95
		adm = 0
		dip = 1
		mil = 0
	}
}

1482.8.5 = {
	monarch = {
		name = "Dawlya"
		dynasty = "Mrauk-U"
		adm = 0
		dip = 1
		mil = 0
	}
}

1482.8.5 = {
	heir = {
		name = "Ba Saw Nyo"
		monarch_name = "Ba Saw Nyo"
		dynasty = "Mrauk-U"
		birth_date = 1435.1.1
		death_Date = 1494.1.1
		claim = 95
		adm = 2
		dip = 1
		mil = 2
	}
}

1492.2.1 = {
	monarch = {
		name = "Ba Saw Nyo"
		dynasty = "Mrauk-U"
		adm = 2
		dip = 1
		mil = 2
	}
}

1492.2.1 = {
	heir = {
		name = "Ran Aung"
		monarch_name = "Ran Aung"
		dynasty = "Mrauk-U"
		birth_date = 1485.9.1
		death_Date = 1495.7.1
		claim = 95
		adm = 0
		dip = 0
		mil = 0
	}
}

1494.1.1 = {
	monarch = {
		name = "Ran Aung"
		dynasty = "Mrauk-U"
		adm = 0
		dip = 0
		mil = 0
	}
}

1494.1.1= {
	heir = {
		name = "Salingathu"
		monarch_name = "Salingathu"
		dynasty = "Mrauk-U"
		birth_date = 1455.4.1
		death_Date = 1515.1.1
		claim = 95
		adm = 3
		dip = 2
		mil = 3
	}
}

1494.7.1 = {
	monarch = {
		name = "Salingathu"
		dynasty = "Mrauk-U"
		adm = 3
		dip = 2
		mil = 3
	}
}

1494.7.1 = {
	heir = {
		name = "Raza"
		monarch_name = "Raza"
		dynasty = "Mrauk-U"
		birth_date = 1480.1.1
		death_Date = 1514.1.1
		claim = 95
		adm = 2
		dip = 2
		mil = 2
	}
}

1502.2.1 = {
	monarch = {
		name = "Raza"
		dynasty = "Mrauk-U"
		adm = 2
		dip = 2
		mil = 2
	}
}

1502.2.1 = {
	heir = {
		name = "Gazapati"
		monarch_name = "Gazapati"
		dynasty = "Mrauk-U"
		birth_date = 1497.12.1
		death_Date = 1515.1.1
		claim = 95
		adm = 1
		dip = 1
		mil = 1
	}
}

1514.1.1 = {
	monarch = {
		name = "Gazapati"
		dynasty = "Mrauk-U"
		adm = 1
		dip = 1
		mil = 1
	}
}

1514.1.1 = {
	heir = {
		name = "Saw O"
		monarch_name = "Saw O"
		dynasty = "Mrauk-U"
		birth_date = 1481.1.1
		death_date = 1515.7.1
		claim = 95
		adm = 0
		dip = 0
		mil = 0
	}
}

1515.1.1 = {
	monarch = {
		name = "Saw O"
		dynasty = "Mrauk-U"
		adm = 0
		dip = 0
		mil = 0
	}
}

1515.7.1 = {
	monarch = {
		name = "Thazata"
		dynasty = "Mrauk-U"
		adm = 2
		dip = 1
		mil = 2
	}
}

1515.7.1 = {
	heir = {
		name = "Minkhaung"
		monarch_name = "Minkhaung"
		dynasty = "Mrauk-U"
		birth_date = 1477.3.1
		death_Date = 1531.5.17
		claim = 95
		adm = 2
		dip = 2
		mil = 2
	}
}

1521.4.1 = {
	monarch = {
		name = "Minkhaung"
		dynasty = "Mrauk-U"
		adm = 2
		dip = 2
		mil = 2
	}
}

1521.4.1 = {
	heir = {
		name = "Min Bin"
		monarch_name = "Min Bin"
		dynasty = "Mrauk-U"
		birth_date = 1503.1.1
		death_Date = 1553.1.1
		claim = 95
		adm = 3
		dip = 3
		mil = 4
	}
}

1531.5.17 = {
	monarch = {
		name = "Min Bin"
		dynasty = "Mrauk-U"
		adm = 3
		dip = 3
		mil = 4
	}
}

1531.5.17 = {
	heir = {
		name = "Dikha"
		monarch_name = "Dikha"
		dynasty = "Mrauk-U"
		birth_date = 1510.1.1
		death_Date = 1556.3.6
		claim = 95
		adm = 1
		dip = 2
		mil = 2
	}
}

1553.1.1 = {
	monarch = {
		name = "Dikha"
		dynasty = "Mrauk-U"
		adm = 1
		dip = 2
		mil = 2
	}
}

1553.1.1 = {
	heir = {
		name = "Saw Hla"
		monarch_name = "Sawla"
		dynasty = "Mrauk-U"
		birth_date = 1520.1.1
		death_date = 1564.7.21
		claim = 95
		adm = 3
		dip = 1
		mil = 1
	}
}

1556.3.6 = {
	monarch = {
		name = "Saw Hla"
		dynasty = "Mrauk-U"
		adm = 3
		dip = 1
		mil = 1
	}
}

1556.3.6 = {
	heir = {
		name = "Sekkya"
		monarch_name = "Sekkya"
		dynasty = "Mrauk-U"
		birth_date = 1525.1.1
		death_date = 1572.2.7
		claim = 95
		adm = 1
		dip = 1
		mil = 3
	}
}

1564.7.24 = {
	monarch = {
		name = "Sekkya"
		dynasty = "Mrauk-U"
		adm = 1
		dip = 1
		mil = 3
	}
}

1564.7.24 = {
	heir = {
		name = "Hpalaung"
		monarch_name = "Hpalaung"
		dynasty = "Mrauk-U"
		birth_date = 1550.1.1
		death_Date = 1593.7.4
		claim = 95
		adm = 2
		dip = 1
		mil = 2
	}
}

1572.2.7 = {
	monarch = {
		name = "Hpalaung"
		dynasty = "Mrauk-U"
		adm = 2
		dip = 1
		mil = 2
	}
}

1572.2.7 = {
	heir = {
		name = "Razagri"
		monarch_name = "Razagri"
		dynasty = "Mrauk-U"
		birth_date = 1570.1.1
		death_Date = 1612.7.4
		claim = 95
		adm = 2
		dip = 2
		mil = 1
	}
}

1593.7.4 = {
	monarch = {
		name = "Razagri"
		dynasty = "Mrauk-U"
		adm = 2
		dip = 2
		mil = 1
	}
}

1593.7.4 = {
	heir = {
		name = "Khamaung"
		monarch_name = "Khamaung"
		dynasty = "Mrauk-U"
		birth_date = 1588.1.1
		death_Date = 1622.5.14
		claim = 95
		adm = 3
		dip = 1
		mil = 2
	}
}

1612.7.4 = {
	monarch = {
		name = "Khamaung"
		dynasty = "Mrauk-U"
		adm = 3
		dip = 1
		mil = 2
	}
}

1612.7.4 = {
	heir = {
		name = "Thiri Thudhamma"
		monarch_name = "Thiri Thudhamma"
		birth_date = 1607.1.1
		death_Date = 1638.5.29
		claim = 95
		adm = 2
		dip = 2
		mil = 2
	}
}

1622.5.14 = {
	monarch = {
		name = "Thiri Thudhamma"
		dynasty = "Mrauk-U"
		adm = 2
		dip = 2
		mil = 2
	}
}

1622.5.14 = {
	heir = {
		name = "Sanay"
		monarch_name = "Sanay"
		dynasty = "Mrauk-U"
		birth_date = 1600.1.1
		death_date = 1639.1.1
		claim = 95
		adm = 0
		dip = 0
		mil = 0
	}
}

1638.5.29 = {
	monarch = {
		name = "Sanay"
		dynasty = "Mrauk-U"
		adm = 0
		dip = 0
		mil = 0
	}
}

1638.5.29 = {
	heir = {
		name = "Narapati"
		monarch_name = "Narapati"
		dynasty = "Mrauk-U"
		birth_date = 1614.1.1
		death_date = 1645.12.13
		claim = 95
		adm = 1
		dip = 1
		mil = 2
	}
}

1638.6.17 = {
	monarch = {
		name = "Narapati"
		dynasty = "Mrauk-U"
		adm = 1
		dip = 1
		mil = 2
	}
}

1638.6.17 = {	
	heir = {
		name = "Thado"
		monarch_name = "Thado"
		dynasty = "Mrauk-U"
		birth_date = 1625.1.1
		death_Date = 1652.5.1
		claim = 95
		adm = 2
		dip = 1
		mil = 2
	}
}

1645.12.13 = {
	monarch = {
		name = "Thado"
		dynasty = "Mrauk-U"
		adm = 2
		dip = 1
		mil = 2
	}
}

1645.12.13 = {
	heir = {
		name = "Sanda Thudhamma"
		monarch_name = "Sanda Thudhamma"
		dynasty = "Mrauk-U"
		birth_date = 1645.1.1
		death_Date = 1674.6.11
		claim = 95
		adm = 3
		dip = 3
		mil = 1
	}
}

1652.5.1 = {
	monarch = {
		name = "Sanda Thudhamma"
		dynasty = "Mrauk-U"
		adm = 3
		dip = 3
		mil = 1
	}
}

1652.5.1 = {
	heir = {
		name = "Thiri Thudhamma"
		monarch_name = "Thiri Thudhamma"
		dynasty = "Mrauk-U"
		birth_date = 1651.1.1
		death_Date = 1685.4.16
		claim = 95
		adm = 1
		dip = 0
		mil = 0
	}
}

1674.6.11 = {
	monarch = {
		name = "Thiri Thudhamma"
		dynasty = "Mrauk-U"
		adm = 1
		dip = 0
		mil = 0
	}
}

1674.6.11 = {
	heir = {
		name = "Wara Dhamma"
		monarch_name = "Wara Dhamma"
		dynasty = "Mrauk-U"
		birth_date = 1655.1.1
		death_Date = 1692.6.20
		claim = 95
		adm = 2
		dip = 2
		mil = 2
	}
}

1685.4.16 = {
	monarch = {
		name = "Wara Dhamma"
		dynasty = "Mrauk-U"
		adm = 2
		dip = 2
		mil = 2
	}
}

1685.4.16 = {
	heir = {
		name = "Mani Dhamma"
		monarch_name = "Wara Dhamma"
		dynasty = "Mrauk-U"
		birth_date = 1660.1.1
		death_Date = 1694.12.20
		claim = 95
		adm = 1
		dip = 1
		mil = 1
	}
}

1692.6.20 = {
	monarch = {
		name = "Mani Dhamma"
		dynasty = "Mrauk-U"
		adm = 1
		dip = 1
		mil = 1
	}
}

1692.6.20 = {
	heir = {
		name = "Sanda Thuriya"
		monarch_name = "Sanda Thuriya I"
		dynasty = "Mrauk-U"
		birth_date = 1676.1.1
		death_Date = 1696.8.4
		claim = 95
		adm = 0
		dip = 1
		mil = 0
	}
}

1694.12.20 = {
	monarch = {
		name = "Sanda Thuriya I"
		dynasty = "Mrauk-U"
		adm = 0
		dip = 1
		mil = 0
	}
}

1694.12.20 = {
	heir = {
		name = "Nawrahta"
		monarch_name = "Nawrahta"
		dynasty = "Mrauk-U"
		birth_date = 1692.1.1
		death_Date = 1696.8.16
		claim = 95
		adm = 0
		dip = 0
		mil = 0
	}
}

1696.8.4 = {
	monarch = {
		name = "Nawrahta"
		dynasty = "Mrauk-U"
		adm = 0
		dip = 0
		mil = 0
	}
}

1696.8.16 = {
	monarch = {
		name = "Mayonpiya"
		dynasty = "Mrauk-U"
		adm = 0
		dip = 0
		mil = 1
	}
}

1697.5.16 = {
	monarch = {
		name = "Kalagandat"
		dynasty = "Mrauk-U"
		adm = 0
		dip = 1
		mil = 0
	}
}

1698.6.5 = {
	monarch = {
		name = "Naradipati I"
		dynasty = "Mrauk-U"
		adm = 1
		dip = 1
		mil = 0
	}
}

1700.6.18 = {
	monarch = {
		name = "Sanda Wimala I"
		dynasty = "Mrauk-U"
		adm = 1
		dip = 0
		mil = 1
	}
}

1707.4.3 = {
	monarch = {
		name = "Sanda Thuriya II"
		dynasty = "Mrauk-U"
		adm = 1
		dip = 0
		mil = 1
	}
}

1710.11.1 = {
	monarch = {
		name = "Sanda Wizaya I"
		dynasty = "Mrauk-U"
		adm = 2
		dip = 3
		mil = 2
	}
}

1710.11.1 = {
	heir = {
		name = "Sanda Thuriya III"
		monarch_name = "Sanda Thuriya III"
		dynasty = "Mrauk-U"
		birth_date = 1700.1.1
		death_Date = 1734.1.1
		claim = 95
		adm = 1
		dip = 0
		mil = 1
	}
}

1720.1.1 = {
	heir = {
		name = "Naradipadi"
		monarch_name = "Naradipadi II"
		dynasty = "Mrauk-U"
		birth_date = 1720.1.1
		death_Date = 1735.1.1
		claim = 95
		adm = 0
		dip = 0
		mil = 0
	}
}

1731.4.1 = {
	monarch = {
		name = "Sanda Thuriya III"
		dynasty = "Mrauk-U"
		adm = 1
		dip = 0
		mil = 1
	}
}

1734.1.1 = {
	monarch = {
		name = "Naradipadi II"
		dynasty = "Mrauk-U"
		adm = 0
		dip = 0
		mil = 0
	}
}

1735.1.1 = {
	monarch = {
		name = "Narapawara"
		dynasty = "Mrauk-U"
		adm = 1
		dip = 0
		mil = 0
	}
}

1737.9.1 = {
	monarch = {
		name = "Sanda Wizaya II"
		dynasty = "Mrauk-U"
		adm = 0
		dip = 0
		mil = 0
	}
}

1738.3.28 = {
	monarch = {
		name = "Madarit"
		dynasty = "Mrauk-U"
		adm = 1
		dip = 1
		mil = 2
	}
}

1738.3.28 = {
	heir = {
		name = "Nara Apaya"
		monarch_name = "Nara Apaya"
		dynasty = "Mrauk-U"
		birth_date = 1700.1.1
		death_Date = 1761.10.28
		claim = 95
		adm = 4
		dip = 3
		mil = 3
	}
}

1743.2.6 = {
	monarch = {
		name = "Nara Apaya"
		dynasty = "Mrauk-U"
		adm = 4
		dip = 3
		mil = 3
	}
}

1743.2.6 = {
	heir = {
		name = "Thirithu"
		monarch_name = "Thirithu"
		dynasty = "Mrauk-U"
		birth_date = 1730.1.1
		death_Date = 1762.2.3
		claim = 95
		adm = 1
		dip = 1
		mil = 1
	}
}

1761.10.28 = {
	monarch = {
		name = "Thirithu"
		dynasty = "Mrauk-U"
		adm = 1
		dip = 1
		mil = 1
	}
}

1761.10.28 = {
	heir = {
		name = "Apaya"
		monarch_name = "Apaya"
		dynasty = "Mrauk-U"
		birth_date = 1740.1.1
		death_Date = 1774.1.17
		claim = 95
		adm = 3
		dip = 3
		mil = 2
	}
}

1764.5.1 = {
	monarch = {
		name = "Apaya"
		dynasty = "Mrauk-U"
		adm = 3
		dip = 3
		mil = 2
	}
}

1764.5.1 = {
	heir = {
		name = "Sanda Thumana"
		monarch_name = "Sanda Thumana"
		dynasty = "Mrauk-U"
		birth_date = 1750.1.1
		death_Date = 1777.5.5
		claim = 95
		adm = 1
		dip = 1
		mil = 1
	}
}

1774.1.17 = {
	monarch = {
		name = "Sanda Thumana"
		dynasty = "Mrauk-U"
		adm = 1
		dip = 1
		mil = 1
	}
}

1777.5.6 = {
	monarch = {
		name = "Sanda Wimala II"
		dynasty = "Mrauk-U"
		adm = 0
		dip = 0
		mil = 1
	}
}

1777.6.5 = {
	monarch = {
		name = "Sanda Thaditha"
		dynasty = "Mrauk-U"
		adm = 0
		dip = 1
		mil = 1
	}
}

1782.12.2 = {
	monarch = {
		name = "Thammada"
		dynasty = "Mrauk-U"
		adm = 0
		dip = 0
		mil = 0
	}
}

# 1785.1.2: End of the Mrauk-U Dynasty, conquered by Burma
