# No previous file for Manidou Minising

culture = potawatomi
religion = totemism
capital = "Manidou Minising"
trade_goods = unknown
hre = no 
base_tax = 1 base_production = 1 base_manpower = 1
native_size = 40
native_ferocity = 2
native_hostileness = 5

1634.1.1  = {  } # Jean Nicolet
1664.1.1  = {  }
1671.1.1  = {	owner = FRA
		controller = FRA
		culture = francien
		religion = catholic
		citysize = 200
	    } # Founding of St. Ignace
1696.1.1  = { add_core = FRA }
1700.1.1  = { citysize = 690 trade_goods = fur }
1707.5.12 = {  }
1750.1.1  = { citysize = 1388 }
1763.2.10 = {	owner = GBR
		controller = GBR
		remove_core = FRA
		culture = english
		religion = protestant
	    } # Treaty of Paris - ceded to Britain, France gave up its claim
1763.10.9 = {	owner = OJI
		controller = OJI
		add_core = OJI
		culture = anishinabe
		religion = totemism
	    } # Royal Proclamation, land set aside for natives
1813.10.5 = {	owner = USA
		controller = USA
		culture = american
		religion = protestant } #The death of Tecumseh mark the end of organized native resistance 
